<?xml version="1.0" encoding="UTF-8"?>
<!DOCTYPE svg PUBLIC "-//W3C//DTD SVG 1.1//EN" "http://www.w3.org/Graphics/SVG/1.1/DTD/svg11.dtd">
<!-- Creator: CorelDRAW X7 -->
<svg xmlns="http://www.w3.org/2000/svg" xml:space="preserve" width="117.634mm" height="135.467mm" version="1.1" style="shape-rendering:geometricPrecision; text-rendering:geometricPrecision; image-rendering:optimizeQuality; fill-rule:evenodd; clip-rule:evenodd"
viewBox="0 0 1366 1573"
 xmlns:xlink="http://www.w3.org/1999/xlink"
 enable-background="new 0 0 512 512">
 <defs>
  <style type="text/css">
   <![CDATA[
    .fil5 {fill:url(#id0)}
    .fil2 {fill:url(#id1)}
    .fil9 {fill:url(#id2)}
    .fil7 {fill:url(#id3)}
    .fil11 {fill:url(#id4)}
    .fil10 {fill:url(#id5)}
    .fil3 {fill:url(#id6)}
    .fil1 {fill:url(#id7)}
    .fil6 {fill:url(#id8)}
    .fil4 {fill:url(#id9)}
    .fil0 {fill:url(#id10)}
    .fil8 {fill:url(#id11)}
   ]]>
  </style>
  <linearGradient id="id0" gradientUnits="userSpaceOnUse" x1="938.644" y1="1159.51" x2="1255.71" y2="1170.06">
   <stop offset="0" style="stop-opacity:1; stop-color:#FACA32"/>
   <stop offset="0.0117647" style="stop-opacity:1; stop-color:#FACA32"/>
   <stop offset="0.25098" style="stop-opacity:1; stop-color:#FCF8CD"/>
   <stop offset="0.439216" style="stop-opacity:1; stop-color:#DEC37D"/>
   <stop offset="0.6" style="stop-opacity:1; stop-color:#C29338"/>
   <stop offset="0.741176" style="stop-opacity:1; stop-color:#D8B45C"/>
   <stop offset="0.870588" style="stop-opacity:1; stop-color:#EED68A"/>
   <stop offset="1" style="stop-opacity:1; stop-color:#FCF8CD"/>
  </linearGradient>
  <linearGradient id="id1" gradientUnits="userSpaceOnUse" xlink:href="#id0" x1="598.228" y1="422.832" x2="767.796" y2="428.472">
  </linearGradient>
  <linearGradient id="id2" gradientUnits="userSpaceOnUse" xlink:href="#id0" x1="1200.4" y1="425.86" x2="1350.42" y2="430.851">
  </linearGradient>
  <linearGradient id="id3" gradientUnits="userSpaceOnUse" xlink:href="#id0" x1="133.208" y1="639.199" x2="212.281" y2="641.829">
  </linearGradient>
  <linearGradient id="id4" gradientUnits="userSpaceOnUse" xlink:href="#id0" x1="1153.95" y1="214.874" x2="1233.01" y2="217.503">
  </linearGradient>
  <linearGradient id="id5" gradientUnits="userSpaceOnUse" xlink:href="#id0" x1="1153.95" y1="639.205" x2="1233.01" y2="641.835">
  </linearGradient>
  <linearGradient id="id6" gradientUnits="userSpaceOnUse" xlink:href="#id0" x1="125.466" y1="1312.58" x2="434.192" y2="1322.85">
  </linearGradient>
  <linearGradient id="id7" gradientUnits="userSpaceOnUse" xlink:href="#id0" x1="431.377" y1="411.537" x2="945.637" y2="428.645">
  </linearGradient>
  <linearGradient id="id8" gradientUnits="userSpaceOnUse" xlink:href="#id0" x1="15.8" y1="425.86" x2="165.826" y2="430.851">
  </linearGradient>
  <linearGradient id="id9" gradientUnits="userSpaceOnUse" xlink:href="#id0" x1="531.977" y1="1233.07" x2="845.035" y2="1243.49">
  </linearGradient>
  <linearGradient id="id10" gradientUnits="userSpaceOnUse" xlink:href="#id0" x1="332.967" y1="408.263" x2="1044.05" y2="431.919">
  </linearGradient>
  <linearGradient id="id11" gradientUnits="userSpaceOnUse" xlink:href="#id0" x1="133.207" y1="214.876" x2="212.279" y2="217.506">
  </linearGradient>
 </defs>
 <g id="Layer_x0020_1">
  <metadata id="CorelCorpID_0Corel-Layer"/>
  <g id="_2040735427808">
   <g>
    <path class="fil0" d="M689 840c231,0 420,-188 420,-420 0,-232 -189,-420 -420,-420 -232,0 -421,188 -421,420 0,232 189,420 421,420zm0 -794c206,0 373,168 373,374 0,206 -167,374 -373,374 -207,0 -374,-168 -374,-374 0,-206 167,-374 374,-374z"/>
    <path class="fil1" d="M689 724c167,0 303,-136 303,-304 0,-167 -136,-304 -303,-304 -76,0 -149,28 -205,79 -9,9 -10,23 -1,33 8,9 23,10 32,1 48,-43 109,-67 174,-67 142,0 257,116 257,258 0,142 -115,258 -257,258 -143,0 -258,-116 -258,-258 0,-43 11,-85 31,-123 6,-11 2,-25 -9,-31 -12,-6 -26,-2 -32,9 -24,44 -36,95 -36,145 0,168 136,304 304,304z"/>
    <path class="fil2" d="M680 529c-37,-2 -47,-24 -48,-29 -3,-10 -12,-17 -23,-17 -12,0 -23,10 -23,23 0,2 0,3 1,5l0 0c0,0 0,0 0,1 0,1 1,2 1,3 4,12 21,48 72,58l0 31c0,12 10,23 23,23 13,0 23,-11 23,-23l0 -30c22,-4 37,-14 46,-23 18,-16 28,-41 28,-65 0,-24 -9,-79 -94,-89 -17,-2 -29,-7 -36,-16 -6,-7 -7,-16 -7,-19 0,-4 1,-40 40,-40 25,0 35,16 37,20 4,8 12,14 22,14 13,0 23,-10 23,-23 0,-4 -1,-7 -3,-10l0 0c-6,-14 -24,-37 -56,-44l0 -31c0,-13 -10,-23 -23,-23 -13,0 -23,10 -23,23l0 31c-46,10 -63,53 -63,83 0,33 22,74 84,81 53,6 53,34 53,43 0,9 -4,23 -13,32 -10,8 -23,12 -41,11l0 0z"/>
    <path class="fil3" d="M297 1069c-5,-4 -11,-7 -17,-7 -7,0 -13,3 -17,7l-157 167c-6,7 -8,17 -4,25 3,9 12,14 21,14l45 0 0 84c0,13 11,23 23,23 13,0 23,-10 23,-23l0 -107c0,-13 -10,-23 -23,-23l-15 0 104 -110 103 110 -15 0c-12,0 -23,10 -23,23l0 275 -131 0 0 -76c0,-12 -10,-23 -23,-23 -12,0 -23,11 -23,23l0 99c0,13 11,23 23,23l177 0c13,0 23,-10 23,-23l0 -275 46 0c9,0 17,-5 21,-14 4,-8 2,-18 -4,-25l-157 -167z"/>
    <path class="fil4" d="M705 910c-4,-4 -10,-7 -16,-7 -7,0 -13,3 -17,7l-157 167c-6,7 -8,17 -5,25 4,9 12,14 22,14l45 0 0 434c0,13 10,23 23,23l177 0c13,0 23,-10 23,-23l0 -434 45 0c10,0 18,-5 22,-14 3,-8 1,-18 -5,-25l-157 -167zm72 160c-13,0 -23,10 -23,23l0 434 -131 0 0 -434c0,-13 -10,-23 -23,-23l-15 0 104 -110 103 110 -15 0 0 0z"/>
    <path class="fil5" d="M1114 764c-4,-5 -10,-8 -17,-8 -6,0 -12,3 -17,8l-157 166c-6,7 -8,17 -4,25 4,9 12,14 21,14l46 0 0 141c0,13 10,23 23,23 12,0 23,-10 23,-23l0 -164c0,-13 -11,-23 -23,-23l-15 0 103 -110 104 110 -15 0c-13,0 -23,10 -23,23l0 581 -131 0 0 -325c0,-12 -11,-23 -23,-23 -13,0 -23,11 -23,23l0 348c0,13 10,23 23,23l177 0c12,0 23,-10 23,-23l0 -581 45 0c9,0 18,-5 21,-14 4,-8 2,-18 -4,-25l-157 -166z"/>
    <path class="fil6" d="M182 428c0,-12 -11,-23 -23,-23l-136 0c-13,0 -23,11 -23,23 0,13 10,23 23,23l136 0c12,0 23,-10 23,-23l0 0z"/>
    <path class="fil7" d="M188 610l-48 18c-12,5 -17,19 -13,30 4,9 12,15 22,15 2,0 5,0 8,-2l48 -18c12,-5 18,-18 13,-30 -4,-12 -18,-18 -30,-13z"/>
    <path class="fil8" d="M140 228l48 19c3,1 6,2 9,2 9,0 18,-6 21,-15 5,-12 -1,-25 -13,-30l-48 -19c-12,-4 -25,1 -30,13 -4,12 1,26 13,30z"/>
    <path class="fil9" d="M1343 405l-135 0c-13,0 -23,11 -23,23 0,13 10,23 23,23l135 0c13,0 23,-10 23,-23 0,-12 -10,-23 -23,-23l0 0z"/>
    <path class="fil10" d="M1161 653l48 18c3,2 6,2 9,2 9,0 17,-6 21,-15 5,-11 -1,-25 -13,-30l-48 -18c-12,-5 -25,1 -30,13 -5,12 1,25 13,30z"/>
    <path class="fil11" d="M1169 249c3,0 6,-1 9,-2l48 -19c12,-4 18,-18 13,-30 -5,-12 -18,-17 -30,-13l-48 19c-12,5 -18,18 -13,30 3,9 12,15 21,15z"/>
   </g>
  </g>
 </g>
</svg>
