<?xml version="1.0" encoding="UTF-8"?>
<!DOCTYPE svg PUBLIC "-//W3C//DTD SVG 1.1//EN" "http://www.w3.org/Graphics/SVG/1.1/DTD/svg11.dtd">
<!-- Creator: CorelDRAW X7 -->
<svg xmlns="http://www.w3.org/2000/svg" xml:space="preserve" width="170.257mm" height="173.919mm" version="1.1" style="shape-rendering:geometricPrecision; text-rendering:geometricPrecision; image-rendering:optimizeQuality; fill-rule:evenodd; clip-rule:evenodd"
viewBox="0 0 3227 3296"
 xmlns:xlink="http://www.w3.org/1999/xlink">
 <defs>
  <style type="text/css">
   <![CDATA[
    .fil4 {fill:url(#id0)}
    .fil2 {fill:url(#id1)}
    .fil3 {fill:url(#id2)}
    .fil1 {fill:url(#id3)}
    .fil0 {fill:url(#id4)}
   ]]>
  </style>
  <linearGradient id="id0" gradientUnits="userSpaceOnUse" x1="1585.66" y1="643.019" x2="1787.49" y2="649.732">
   <stop offset="0" style="stop-opacity:1; stop-color:#FACA32"/>
   <stop offset="0.0117647" style="stop-opacity:1; stop-color:#FACA32"/>
   <stop offset="0.25098" style="stop-opacity:1; stop-color:#FCF8CD"/>
   <stop offset="0.439216" style="stop-opacity:1; stop-color:#DEC37D"/>
   <stop offset="0.6" style="stop-opacity:1; stop-color:#C29338"/>
   <stop offset="0.741176" style="stop-opacity:1; stop-color:#D8B45C"/>
   <stop offset="0.870588" style="stop-opacity:1; stop-color:#EED68A"/>
   <stop offset="1" style="stop-opacity:1; stop-color:#FCF8CD"/>
  </linearGradient>
  <linearGradient id="id1" gradientUnits="userSpaceOnUse" xlink:href="#id0" x1="69.1626" y1="1673.71" x2="614.644" y2="1691.85">
  </linearGradient>
  <linearGradient id="id2" gradientUnits="userSpaceOnUse" xlink:href="#id0" x1="2633.48" y1="1673.71" x2="3178.96" y2="1691.85">
  </linearGradient>
  <linearGradient id="id3" gradientUnits="userSpaceOnUse" xlink:href="#id0" x1="2419.78" y1="605.244" x2="2965.26" y2="623.389">
  </linearGradient>
  <linearGradient id="id4" gradientUnits="userSpaceOnUse" xlink:href="#id0" x1="200.574" y1="1609.62" x2="2513.31" y2="1686.55">
  </linearGradient>
 </defs>
 <g id="Layer_x0020_1">
  <metadata id="CorelCorpID_0Corel-Layer"/>
  <g id="_2040813284736">
   <path class="fil0" d="M0 3077l43 96 1533 -635 267 32 96 293 -128 123c-48,43 -64,112 -37,177l53 133 887 -347 -48 -128c-22,-64 -80,-102 -150,-102l-176 0 -96 -230 235 -117c75,-37 107,-123 80,-198l-305 -817c-32,-86 -122,-123 -208,-96 0,0 -5,0 -5,5l-225 96 -32 -80 123 -144c86,-96 139,-214 155,-342l155 -187c102,-118 80,-294 -37,-395 -22,-16 -43,-32 -64,-43 -59,-27 -118,-32 -182,-16l-16 -48c-27,-86 -123,-128 -203,-96l-1127 406c-86,32 -129,123 -96,203l0 5 26 69c-139,65 -203,225 -155,364 38,107 134,181 246,197l251 27c102,75 224,123 347,134l177 16 32 80c-38,21 -64,59 -75,107l-37 181 -1304 529 37 102 748 -299 182 544 -967 401zm2559 -224l11 32 -684 272 -16 -32c-6,-21 0,-43 11,-59l181 -171 230 -74 214 0c26,0 42,10 53,32zm-337 -128l-192 64 -69 -203c32,5 58,0 85,-16l91 -43 85 198zm-144 -1379c27,-10 59,0 70,27l42 112 -261 86 32 101 261 -85 65 171 -252 85 32 102 257 -86 64 171 -246 80 32 102 251 -86 27 70c11,26 0,53 -27,64l-422 208c-10,5 -21,5 -32,5l-363 -42 -198 -593 38 -198c5,-16 16,-32 32,-37l598 -257zm-5 -1079c85,37 128,139 91,230 -6,16 -16,27 -27,43l-64 80c-6,-54 -16,-102 -32,-155l-70 -209c38,-5 70,0 102,11l0 0zm-1603 764c-32,-91 5,-187 91,-230l75 182c26,64 64,128 107,182l-113 -11c-74,-5 -138,-54 -160,-123l0 0zm759 283c-219,-21 -412,-160 -492,-368l-139 -353c-10,-27 0,-59 27,-69l1127 -407c16,-5 27,-5 43,0 11,6 21,17 27,33l117 352c64,198 22,411 -112,566l-166 193 49 128 -193 80 -53 -133 -235 -22zm-342 775l123 -48 133 406 102 -32 -139 -417 214 -85 181 539 -433 182 -181 -545zm0 0z"/>
   <path class="fil1" d="M2639 935l0 53 107 0 0 -53c0,-150 117,-267 267,-267l0 -107c-150,0 -267,-118 -267,-267l0 -54 -107 0 0 54c0,149 -117,267 -267,267l0 107c150,0 267,117 267,267zm54 -449c32,54 74,96 128,128 -54,32 -96,75 -128,129 -33,-54 -75,-97 -129,-129 54,-32 96,-74 129,-128zm0 0z"/>
   <path class="fil2" d="M288 2003l0 54 107 0 0 -54c0,-149 118,-267 267,-267l0 -107c-149,0 -267,-117 -267,-267l0 -53 -107 0 0 53c0,150 -117,267 -267,267l0 107c150,0 267,118 267,267l0 0zm54 -448c32,53 75,96 128,128 -53,32 -96,75 -128,128 -32,-53 -75,-96 -128,-128 53,-32 96,-75 128,-128zm0 0z"/>
   <path class="fil3" d="M2960 1362l0 -53 -107 0 0 53c0,150 -118,267 -267,267l0 107c149,0 267,118 267,267l0 54 107 0 0 -54c0,-149 117,-267 267,-267l0 -107c-150,0 -267,-117 -267,-267l0 0zm-54 449c-32,-53 -75,-96 -128,-128 53,-32 96,-75 128,-128 32,53 75,96 128,128 -53,32 -96,75 -128,128zm0 0z"/>
   <path class="fil4" d="M1587 951l74 75c294,-294 22,-743 6,-759l-91 59c5,0 246,390 11,625zm0 0z"/>
  </g>
 </g>
</svg>
