<?xml version="1.0" encoding="UTF-8"?>
<!DOCTYPE svg PUBLIC "-//W3C//DTD SVG 1.1//EN" "http://www.w3.org/Graphics/SVG/1.1/DTD/svg11.dtd">
<!-- Creator: CorelDRAW X7 -->
<svg xmlns="http://www.w3.org/2000/svg" xml:space="preserve" width="317.463mm" height="87.8766mm" version="1.1" style="shape-rendering:geometricPrecision; text-rendering:geometricPrecision; image-rendering:optimizeQuality; fill-rule:evenodd; clip-rule:evenodd"
viewBox="0 0 12676 3509"
 xmlns:xlink="http://www.w3.org/1999/xlink">
 <defs>
  <style type="text/css">
   <![CDATA[
    .fil1 {fill:#006EC7}
    .fil0 {fill:#61BF1A}
   ]]>
  </style>
 </defs>
 <g id="Layer_x0020_1">
  <metadata id="CorelCorpID_0Corel-Layer"/>
  <g id="_1909045637360">
   <path class="fil0" d="M2269 2609l0 -869 0 -8c0,-59 -50,-107 -110,-107 -59,0 -109,48 -109,107l0 2 0 571c0,116 -25,206 -73,273 -56,71 -137,108 -241,108 -144,0 -215,-79 -215,-233l0 -715 0 -4c0,-59 -46,-107 -106,-107 -59,0 -108,48 -108,107l0 738c0,233 125,348 375,348 166,0 287,-74 362,-224l6 0 0 190 351 0 0 -114 -17 0c-77,0 -115,-21 -115,-63z"/>
   <path class="fil0" d="M3476 2567l0 -1406 0 -2c0,-57 -46,-105 -106,-105 -57,0 -105,48 -105,105 0,2 2,2 2,2l0 727 -6 0c-66,-111 -173,-167 -319,-167 -133,0 -243,48 -329,146 -94,104 -140,238 -140,407 0,150 42,275 125,375 84,98 199,148 346,148 161,0 267,-67 317,-201l6 0 0 190 336 0 0 -108c-85,2 -127,-34 -127,-111zm-490 123c-185,0 -277,-144 -277,-431 0,-284 92,-429 277,-429 186,0 281,145 281,429 0,287 -95,431 -281,431z"/>
   <path class="fil0" d="M4672 2567l0 -1406 0 -2c0,-57 -46,-103 -104,-103 -57,0 -106,46 -106,103l0 729 -5 0c-66,-111 -173,-167 -319,-167 -133,0 -243,48 -329,146 -94,104 -141,238 -141,407 0,150 43,275 125,375 85,98 200,148 346,148 162,0 268,-67 318,-201l5 0 0 190 335 0 0 -108c-83,2 -125,-34 -125,-111zm-490 123c-185,0 -279,-144 -279,-431 0,-284 94,-429 279,-429 186,0 280,145 280,429 0,287 -94,431 -280,431z"/>
   <path class="fil0" d="M5847 2274c-8,-163 -52,-294 -133,-396 -81,-100 -186,-150 -317,-150 -166,0 -294,49 -390,148 -97,99 -143,239 -143,418 0,148 46,269 143,361 96,91 221,137 378,137 131,0 239,-37 323,-110l0 -2c25,-17 31,-50 16,-69 -16,-21 -46,-23 -71,-4l-2 0c-60,50 -137,75 -227,75 -94,0 -173,-31 -231,-94 -65,-69 -98,-164 -98,-285l0 -29 752 0zm-721 -274c48,-124 130,-185 248,-185 113,0 188,61 225,185 15,51 21,113 19,186l-523 0c2,-73 13,-135 31,-186z"/>
   <path class="fil0" d="M7133 2694c-2,0 -2,2 -2,2l0 -2 -23 0c-73,0 -108,-35 -108,-104l0 -485c0,-117 -34,-215 -104,-290 -69,-77 -163,-115 -282,-115 -156,0 -277,75 -365,225l0 -191c0,-61 -50,-111 -110,-111 -62,0 -112,50 -112,111l0 856c0,69 -34,104 -107,104l-23 0 0 92 352 0 0 -583c0,-115 30,-205 88,-275 58,-63 129,-94 213,-94 70,0 125,21 166,62 42,42 63,100 63,171l0 719 352 0 2 0c25,0 44,-21 44,-46 0,-25 -19,-46 -44,-46z"/>
   <path class="fil0" d="M896 2111l-225 -48c-136,-31 -206,-87 -206,-167 0,-56 23,-100 68,-133 40,-31 88,-44 142,-42 100,4 152,71 154,200 2,61 46,109 102,109 55,0 100,-48 102,-109l1 0c0,-106 -44,-185 -130,-237 -68,-42 -145,-61 -231,-56 -98,2 -179,33 -240,93 -62,57 -93,136 -93,234 0,87 20,156 56,204 40,54 110,92 208,115l175 43c92,23 155,46 192,71 40,31 62,75 62,131 0,55 -27,102 -77,134 -45,31 -95,46 -150,46 -204,0 -337,-121 -404,-367 0,-21 -17,-40 -39,-40 -23,0 -40,19 -40,40l0 2 0 448 0 2c0,21 17,38 40,38 22,0 39,-17 39,-38l0 -2c0,-77 13,-115 42,-115 8,0 17,5 27,13 90,77 198,116 325,116 108,0 196,-33 265,-99 71,-63 106,-151 106,-265 0,-173 -90,-281 -271,-321z"/>
   <path class="fil0" d="M4930 636l2505 -94 0 -38 -2455 90c-2784,106 -4993,460 -4980,794 2,81 100,156 329,215 -146,-51 -210,-111 -227,-171 -85,-303 2128,-680 4828,-796z"/>
   <path class="fil0" d="M8187 475l0 0 -235 10 -62 1 0 41 143 -6 13 -2 48 -2 94 -2c10,-2 18,-9 18,-21 0,-9 -10,-19 -19,-19z"/>
   <path class="fil0" d="M8258 354c7,-8 7,-19 0,-27l-187 -173c-7,-6 -21,-6 -27,2 -7,7 -7,19 0,27l75 69 112 104c7,7 19,7 27,-2z"/>
   <path class="fil0" d="M8756 817c5,-9 5,-21 -2,-29l-112 -104 -73 -69c-9,-6 -21,-6 -29,2 -7,8 -5,21 2,27l73 69 39 35 73 69c8,8 21,8 29,0z"/>
   <path class="fil0" d="M8884 467c0,-9 -9,-19 -21,-17l-252 8c-11,2 -19,9 -19,21 0,11 10,19 19,19l254 -10c12,0 19,-9 19,-21z"/>
   <path class="fil0" d="M8267 627c-7,-8 -19,-6 -27,2l-69 73 -34 38 -70 73c-7,10 -5,21 2,29 8,8 20,6 27,-2l69 -73 35 -38 69 -73c8,-10 6,-22 -2,-29z"/>
   <path class="fil0" d="M8729 131c-8,-8 -20,-8 -27,0l-69 75 -104 111c-6,8 -6,19 2,27 7,8 19,8 27,0l69 -75 34 -38 70 -73c7,-8 7,-21 -2,-27z"/>
   <path class="fil0" d="M8406 679c-10,0 -20,9 -18,21l4 100 2 52 2 100c2,11 10,19 21,19 12,0 19,-10 19,-19l-3 -102 -2 -52 -4 -100c0,-12 -10,-19 -21,-19z"/>
   <path class="fil0" d="M8381 0c-10,2 -20,10 -18,21l2 100 2 52 4 102c2,10 10,19 21,17 10,0 19,-7 19,-19l-3 -102 -2 -50 -4 -102c0,-9 -10,-19 -21,-19z"/>
   <polygon class="fil1" points="8954,3070 8909,3070 8856,3501 9084,3501 9090,3463 8906,3463 "/>
   <path class="fil1" d="M9234 3070l-42 0 -6 48 43 0 5 -48zm-15 125l-42 0 -39 306 44 0 37 -306z"/>
   <path class="fil1" d="M9417 3195l-56 0 8 -55c2,-25 11,-41 44,-41 6,0 14,0 19,4l6 -38 -23 -2c-52,0 -83,25 -90,77l-6 55 -46 0 -6 37 46 0 -32 269 44 0 32 -269 56 0 4 -37z"/>
   <path class="fil1" d="M9475 3318c5,-42 34,-96 84,-96 45,0 58,58 52,96l-136 0zm179 37c15,-75 0,-167 -87,-167 -69,0 -129,46 -142,159 -16,116 34,162 102,162 52,0 98,-29 119,-68l-29 -21c-19,27 -50,52 -81,52 -44,0 -79,-29 -67,-117l185 0z"/>
   <path class="fil1" d="M10201 3192c-3,-74 -40,-129 -117,-129 -90,0 -165,80 -182,223 -18,142 38,223 126,223 79,0 131,-58 152,-127l-40 -12c-17,50 -50,102 -106,102 -59,0 -104,-56 -88,-186 17,-131 75,-187 134,-187 58,0 75,52 81,102l40 -9z"/>
   <path class="fil1" d="M10357 3472c-65,0 -69,-73 -63,-125 7,-52 29,-125 96,-125 65,0 69,73 63,125 -7,52 -29,125 -96,125zm-4 37c68,0 127,-46 143,-162 13,-113 -35,-159 -102,-159 -70,0 -129,46 -143,159 -13,116 35,162 102,162z"/>
   <path class="fil1" d="M10621 3268c19,-21 57,-46 84,-46 46,0 35,46 31,79l-25 200 42 0 27 -211c10,-79 -23,-102 -65,-102 -35,0 -62,19 -89,40l4 -33 -44 0 -37 306 43 0 29 -233z"/>
   <path class="fil1" d="M10905 3268c21,-21 58,-46 85,-46 46,0 34,46 30,79l-24 200 44 0 25 -211c9,-79 -21,-102 -66,-102 -34,0 -61,19 -88,40l4 -33 -43 0 -38 306 44 0 27 -233z"/>
   <path class="fil1" d="M11180 3318c6,-42 37,-96 85,-96 44,0 59,58 52,96l-137 0zm179 37c15,-75 2,-167 -87,-167 -67,0 -128,46 -142,159 -13,116 35,162 102,162 54,0 98,-29 119,-68l-29 -21c-19,27 -48,52 -80,52 -45,0 -77,-29 -68,-117l185 0z"/>
   <path class="fil1" d="M11645 3265c-9,-47 -36,-77 -88,-77 -67,0 -127,46 -140,159 -16,116 32,162 101,162 49,0 93,-35 116,-81l-33 -17c-17,30 -40,59 -79,61 -65,0 -69,-73 -63,-125 6,-52 29,-125 94,-125 35,0 48,31 54,58l38 -15z"/>
   <path class="fil1" d="M11797 3097l-44 0 -12 98 -46 0 -4 37 47 0 -22 173c-7,56 -17,104 56,104 16,0 29,-4 44,-8l4 -33c-11,4 -23,4 -34,4 -37,0 -33,-19 -29,-48l23 -192 69 0 4 -37 -67 0 11 -98z"/>
   <path class="fil1" d="M11928 3318c6,-42 36,-96 85,-96 46,0 59,58 53,96l-138 0zm179 37c15,-75 2,-167 -87,-167 -67,0 -127,46 -142,159 -13,116 35,162 104,162 52,0 96,-29 117,-68l-29 -21c-17,27 -48,52 -81,52 -44,0 -76,-29 -67,-117l185 0z"/>
   <path class="fil1" d="M12359 3228c-20,-21 -43,-40 -73,-40 -52,0 -120,46 -133,167 -15,115 50,154 92,154 33,0 60,-18 83,-43l-4 35 42 0 54 -431 -42 0 -19 158zm-25 187c-16,26 -48,57 -79,57 -29,0 -67,-29 -58,-119 6,-46 29,-129 89,-129 34,0 55,23 65,50l-17 141z"/>
   <path class="fil1" d="M12555 3107c-2,-19 -14,-33 -33,-33 -19,0 -36,14 -38,33 -6,40 55,27 51,61 -1,12 -13,22 -26,22 -16,0 -25,-12 -25,-27l-14 4c2,21 16,34 37,34 21,0 38,-13 40,-34 6,-43 -54,-31 -50,-62 0,-12 12,-21 23,-21 15,0 19,11 23,25l12 -2z"/>
   <polygon class="fil1" points="12591,3088 12591,3088 12607,3197 12618,3197 12660,3088 12647,3197 12660,3197 12676,3076 12655,3076 12616,3176 12614,3176 12601,3076 12580,3076 12564,3197 12578,3197 "/>
   <path class="fil1" d="M12586 1277l-27 0 -14 111 17 0 12 -92 23 92 12 0 46 -92 -12 92 17 0 14 -111 -25 0 -42 82 -21 -82zm-47 0l-86 0 -2 11 35 0 -12 100 15 0 14 -100 34 0 2 -11z"/>
   <path class="fil1" d="M8014 2646c-2,0 -4,1 -4,1 -68,-1 -116,-11 -143,-32 -8,-8 -16,-17 -22,-28 0,0 -1,-1 -1,-1 0,0 0,0 0,0 -10,-19 -16,-43 -17,-73l0 -2125 -2 0c0,-88 -73,-161 -161,-161 -91,0 -162,73 -164,161l0 2125c-2,48 -15,81 -40,102 -27,21 -75,31 -142,32 -2,0 -2,-1 -4,-1 -37,0 -68,30 -68,67 0,36 31,67 68,67 2,0 4,-2 5,-2l181 0 327 0 181 0c2,0 4,2 6,2 36,0 65,-31 65,-67 0,-37 -29,-67 -65,-67z"/>
   <path class="fil1" d="M8771 2646l0 0 -4 0c-71,0 -119,-12 -148,-33 -29,-23 -42,-62 -42,-117l0 -1267c0,-89 -71,-160 -162,-160 -88,0 -159,71 -159,160l0 1253c0,65 -16,108 -43,131 -28,21 -76,33 -146,33l-7 0 11 9 10 12 7 14 5 15 1 17 -1 16 -5 16 -7 14 -10 12 -8 7 704 0 2 0c39,0 67,-29 67,-65 0,-37 -28,-67 -65,-67z"/>
   <path class="fil1" d="M10609 2646l0 0 -35 0c-105,0 -159,-52 -159,-154l0 -715c0,-174 -50,-316 -152,-429 -102,-112 -240,-168 -415,-168 -229,0 -408,110 -539,331l0 -282c0,-91 -73,-162 -161,-162 -91,0 -164,71 -164,162l0 1263c0,102 -53,154 -159,154l-7 0 11 9 9 12 8 14 4 15 2 17 -2 16 -4 15 -8 14 -10 12 -10 8 491 0 0 -857c0,-169 45,-304 131,-404 85,-94 189,-140 313,-140 102,0 183,30 245,92 61,61 92,144 92,252l0 1057 519 0c37,0 65,-31 65,-67 0,-37 -28,-65 -65,-65z"/>
   <path class="fil1" d="M12362 2647l0 0c-59,0 -111,-17 -153,-48 -45,-32 -104,-96 -185,-192l-479 -596 256 -208c152,-123 315,-188 488,-194l2 0c37,0 66,-30 66,-67 0,-37 -29,-65 -66,-65 -232,0 -461,100 -688,300 -154,140 -321,284 -500,434l0 -1623c0,-86 -71,-157 -157,-157 -89,0 -160,71 -160,159 0,6 2,12 2,18l0 2091c0,54 -14,93 -41,116 -19,15 -50,24 -92,29l11 10 10 12 8 13 4 16 2 16 -2 16 -4 16 -8 14 -9 12 -11 9 447 0 0 -590 219 -190 610 780 429 0 1 0c37,0 66,-29 66,-65 0,-37 -29,-66 -66,-66z"/>
  </g>
 </g>
</svg>
