<?xml version="1.0" encoding="UTF-8"?>
<!DOCTYPE svg PUBLIC "-//W3C//DTD SVG 1.1//EN" "http://www.w3.org/Graphics/SVG/1.1/DTD/svg11.dtd">
<!-- Creator: CorelDRAW X7 -->
<svg xmlns="http://www.w3.org/2000/svg" xml:space="preserve" width="261.584mm" height="261.586mm" version="1.1" style="shape-rendering:geometricPrecision; text-rendering:geometricPrecision; image-rendering:optimizeQuality; fill-rule:evenodd; clip-rule:evenodd"
viewBox="0 0 26158 26159"
 xmlns:xlink="http://www.w3.org/1999/xlink">
 <defs>
  <style type="text/css">
   <![CDATA[
    .fil0 {fill:#6083D9}
    .fil1 {fill:#FEFEFE;fill-rule:nonzero}
   ]]>
  </style>
 </defs>
 <g id="Layer_x0020_1">
  <metadata id="CorelCorpID_0Corel-Layer"/>
  <g id="_2839210226000">
   <path class="fil0" d="M0 13079c0,7224 5856,13080 13079,13080 7224,0 13079,-5856 13079,-13080 0,-7223 -5855,-13079 -13079,-13079l0 0c-7223,0 -13079,5856 -13079,13079l0 0z"/>
   <path class="fil1" d="M14703 19454c155,155 155,408 0,563l-1343 1343c-38,37 -82,67 -131,87l-6 2c-93,37 -197,37 -291,0l-6 -2c-49,-20 -93,-50 -130,-87l-1343 -1342c-161,-150 -170,-403 -20,-564 150,-161 402,-170 563,-20 7,7 14,13 20,20l665 662 0 -1947c0,-220 178,-399 398,-399 220,0 399,179 399,399l0 1947 662 -662c156,-155 407,-155 563,0l0 0zm-1202 -5395l-23 0 0 286c0,221 -179,399 -399,399 -220,0 -398,-178 -398,-399l0 -286 -341 0c-220,0 -398,-179 -398,-399 0,-220 178,-399 398,-399l1161 0c134,0 243,-108 243,-241 0,-134 -109,-242 -242,-243l-1 0 -847 0c-575,0 -1041,-466 -1041,-1040 0,-575 466,-1040 1041,-1041l27 0 0 -286c0,-221 178,-399 398,-399 220,0 399,178 399,399l0 286 334 0c221,0 399,179 399,399 0,220 -178,399 -399,399l-1158 0c-135,0 -243,109 -243,243 0,134 109,243 243,243l847 0c575,0 1040,466 1040,1040 -1,573 -466,1038 -1040,1039zm4686 -3644c-486,23 -920,-305 -1031,-779 -38,-185 -201,-318 -391,-319l-7372 0c-189,1 -352,134 -391,319 -109,475 -544,804 -1031,779 -220,0 -399,178 -399,399l0 3197c0,220 179,398 399,398 486,-23 920,305 1031,779 39,185 202,318 391,319l7372 0c188,-1 349,-133 388,-316 112,-476 546,-804 1034,-782 220,0 399,-178 399,-398l0 -3197c0,-221 -179,-399 -399,-399zm1398 5387c0,367 -297,664 -664,664l-11683 0c-368,0 -665,-297 -665,-664l0 -6780c0,-367 297,-664 665,-664l11683 0c367,0 664,297 664,664l0 6780zm-664 -8241l-11683 0c-808,0 -1462,654 -1462,1461l0 6780c0,807 654,1462 1462,1462l11683 0c807,0 1462,-655 1462,-1462l0 -6780c0,-807 -655,-1461 -1462,-1461z"/>
  </g>
 </g>
</svg>
