<?xml version="1.0" encoding="UTF-8"?>
<!DOCTYPE svg PUBLIC "-//W3C//DTD SVG 1.1//EN" "http://www.w3.org/Graphics/SVG/1.1/DTD/svg11.dtd">
<!-- Creator: CorelDRAW X7 -->
<svg xmlns="http://www.w3.org/2000/svg" xml:space="preserve" width="67.4294mm" height="67.427mm" version="1.1" style="shape-rendering:geometricPrecision; text-rendering:geometricPrecision; image-rendering:optimizeQuality; fill-rule:evenodd; clip-rule:evenodd"
viewBox="0 0 834 834"
 xmlns:xlink="http://www.w3.org/1999/xlink">
 <defs>
  <style type="text/css">
   <![CDATA[
    .fil0 {fill:#4B8BB1;fill-rule:nonzero}
   ]]>
  </style>
 </defs>
 <g id="Layer_x0020_1">
  <metadata id="CorelCorpID_0Corel-Layer"/>
  <g id="_2441781307488">
   <path class="fil0" d="M389 1c-58,3 -120,20 -164,44 -38,21 -63,38 -91,65 -19,19 -35,34 -50,54 -62,82 -89,175 -83,281 4,90 36,162 85,227 10,14 14,17 24,28 19,20 33,34 54,50 30,23 64,43 101,57 105,40 244,37 344,-18 38,-21 62,-37 91,-65 20,-19 34,-33 50,-54 23,-30 43,-64 57,-101 40,-105 37,-244 -18,-344 -19,-35 -30,-50 -53,-78 -2,-3 -3,-4 -6,-7 -2,-3 -4,-4 -6,-6 -47,-48 -89,-82 -155,-107 -55,-21 -115,-30 -180,-26zm15 83c47,-2 101,9 139,26 21,9 37,18 56,29 21,13 39,29 57,47 11,11 19,20 28,34 38,53 62,113 66,183 5,92 -39,197 -107,259l-17 14c-20,15 -40,28 -64,39 -37,19 -84,32 -132,35 -69,4 -140,-20 -195,-55 -11,-7 -38,-27 -46,-36 -10,-11 -11,-10 -21,-22 -21,-26 -32,-40 -49,-75 -19,-38 -32,-84 -35,-132 -5,-91 40,-196 107,-258l29 -22c54,-38 113,-62 184,-66z"/>
   <path class="fil0" d="M591 382c0,-14 22,-14 22,0l0 121 11 0c7,0 12,5 12,11l0 48c0,6 -5,12 -12,12l-414 0c-7,0 -12,-6 -12,-12l0 -48c0,-6 5,-11 12,-11l10 0 0 -40c0,-15 23,-15 23,0l0 40 348 0 0 -11 -113 0c-15,0 -15,-23 0,-23l113 0 0 -9 -48 0c-15,0 -15,-23 0,-23l48 0 0 -55 0 0zm-149 87c15,0 15,23 0,23l-20 0c-15,0 -15,-23 0,-23l20 0zm-157 -138c0,-15 23,-15 23,0l0 22 26 16 0 -7c0,-14 22,-15 23,0l38 -40 0 -24c0,-15 23,-15 23,0l0 23 47 34 0 -21c0,-15 23,-15 23,0l0 17 32 -30 0 -14c0,-15 23,-15 23,0l0 12 43 23 43 -51c10,-11 27,3 17,15l-48 57c-3,4 -9,6 -14,3l-41 -21 0 52c0,15 -23,15 -23,0l0 -45 -32 30 0 53c0,15 -23,15 -23,0l0 -52 -47 -34 0 50c0,15 -23,15 -23,0l0 -44 -38 39 0 69c0,15 -23,15 -23,0l0 -67 -26 -16 0 52c0,14 -23,14 -23,0l0 -46 -81 79c-11,10 -26,-6 -16,-16l97 -95 0 -23 0 0zm-64 195l0 25 392 0 0 -25 -392 0zm22 -163c0,15 -23,15 -23,0l0 -91c0,-7 6,-12 12,-12l370 0c6,0 11,5 11,12l0 27c0,15 -22,15 -22,0l0 -16 -348 0 0 80 0 0z"/>
  </g>
 </g>
</svg>
