<?xml version="1.0" encoding="UTF-8"?>
<!DOCTYPE svg PUBLIC "-//W3C//DTD SVG 1.1//EN" "http://www.w3.org/Graphics/SVG/1.1/DTD/svg11.dtd">
<!-- Creator: CorelDRAW X7 -->
<svg xmlns="http://www.w3.org/2000/svg" xml:space="preserve" width="156.805mm" height="39.4208mm" version="1.1" style="shape-rendering:geometricPrecision; text-rendering:geometricPrecision; image-rendering:optimizeQuality; fill-rule:evenodd; clip-rule:evenodd"
viewBox="0 0 3648 917"
 xmlns:xlink="http://www.w3.org/1999/xlink">
 <defs>
  <style type="text/css">
   <![CDATA[
    .fil0 {fill:#FEFEFE}
    .fil5 {fill:#009345}
    .fil6 {fill:#58595B}
    .fil4 {fill:#8BC53F}
    .fil1 {fill:#8DC63F}
    .fil2 {fill:#F9E988}
    .fil3 {fill:white}
   ]]>
  </style>
 </defs>
 <g id="Layer_x0020_1">
  <metadata id="CorelCorpID_0Corel-Layer"/>
  <g id="_2564098472448">
   <path class="fil0" d="M1283 391c-11,-43 -38,-74 -93,-74 -80,0 -113,70 -113,142 0,71 34,141 113,141 58,0 90,-43 95,-97l64 0c-5,89 -69,150 -159,150 -111,0 -178,-88 -178,-194 0,-107 67,-195 178,-195 84,0 150,47 158,127l-65 0zm0 0m105 119c0,-83 50,-142 136,-142 86,0 135,59 135,142 0,82 -49,142 -135,142 -86,0 -136,-60 -136,-142l0 0zm212 0c0,-47 -23,-95 -76,-95 -53,0 -77,48 -77,95 0,46 24,95 77,95 53,0 76,-48 76,-95l0 0zm0 0m111 -238l59 0 0 57 -59 0 0 -57zm0 103l59 0 0 270 -59 0 0 -270zm0 0m124 0l56 0 0 40 2 1c17,-29 49,-48 84,-48 58,0 95,32 95,92l0 185 -59 0 0 -170c-1,-42 -17,-60 -53,-60 -39,0 -65,31 -65,70l0 160 -59 0 0 -270 -1 0zm0 0m632 270l-41 0 -11 -44c-34,40 -66,52 -112,52 -111,0 -178,-88 -178,-194 0,-107 67,-195 178,-195 82,0 150,43 160,127l-64 0c-6,-49 -49,-74 -96,-74 -80,0 -113,70 -113,142 0,71 33,141 113,141 66,2 103,-39 104,-102l-99 0 0 -50 159 0 0 197zm0 0m109 -120c0,42 23,80 73,80 34,0 55,-15 65,-45l57 0c-13,59 -63,92 -122,92 -85,0 -132,-59 -132,-142 0,-76 50,-142 130,-142 85,0 137,76 127,157l-198 0zm138 -39c-1,-38 -27,-71 -67,-71 -41,0 -69,31 -72,71l139 0zm0 0m288 -21c-5,-33 -29,-50 -62,-50 -31,0 -74,16 -74,98 0,45 19,92 71,92 34,0 58,-23 64,-62l59 0c-11,70 -54,108 -124,108 -84,0 -131,-59 -131,-139 0,-81 45,-145 133,-145 63,0 116,32 122,98l-58 0 0 0 0 0zm0 0m109 -193l59 0 0 212 108 -109 73 0 -103 99 112 171 -72 0 -83 -131 -36 34 0 97 -59 0 0 -373 1 0 0 0zm0 0m266 238c0,-83 49,-142 135,-142 87,0 136,59 136,142 0,82 -50,142 -136,142 -86,0 -135,-60 -135,-142l0 0zm213 0c0,-47 -24,-95 -77,-95 -53,0 -77,48 -77,95 0,46 24,95 77,95 53,0 77,-48 77,-95l0 0zm0 0z"/>
   <g>
    <path class="fil1" d="M917 457c0,185 -110,353 -281,424 -171,72 -368,34 -500,-97 -132,-130 -172,-327 -102,-499 70,-172 237,-284 422,-285 254,-1 459,203 461,457l0 0 0 0zm0 0z"/>
    <path class="fil2" d="M883 457c0,171 -102,326 -261,393 -158,66 -340,30 -462,-90 -122,-121 -159,-303 -94,-461 65,-159 219,-263 390,-264 235,-1 425,188 427,422l0 0zm0 0z"/>
    <path class="fil3" d="M466 62c28,-4 55,-4 82,0 27,4 54,14 78,26 24,14 45,32 66,48 20,17 41,35 61,54 20,18 37,39 52,63 15,23 27,48 36,73 18,52 24,108 15,161l-2 0c-9,-53 -21,-103 -40,-151 -9,-25 -20,-48 -32,-71 -12,-22 -25,-45 -40,-66 -16,-21 -35,-40 -56,-56 -21,-15 -46,-25 -70,-34 -24,-10 -48,-19 -73,-27 -25,-7 -50,-13 -77,-18l0 -2 0 0zm0 0z"/>
    <path class="fil4" d="M673 307c-30,-9 -62,-21 -94,-34 -2,-8 -10,-18 -24,-31 -21,-18 -61,-18 -95,-10 -38,-8 -75,-12 -111,-3 -293,81 -127,277 -235,476 15,32 181,221 419,171 0,0 -81,-196 103,-291 150,-76 257,-218 37,-278l0 0 0 0zm0 0z"/>
    <path class="fil5" d="M460 232c21,2 99,27 119,41 -17,-48 -73,-55 -119,-41l0 0zm0 0z"/>
    <path class="fil3" d="M710 436c0,15 -19,23 -30,13 -11,-12 -4,-31 12,-31 10,0 18,8 18,18l0 0 0 0zm0 0m-230 -82c0,33 -20,63 -51,76 -30,13 -66,6 -89,-18 -24,-24 -31,-59 -18,-90 13,-30 43,-50 76,-50 22,0 42,8 57,23 16,16 25,37 25,59l0 0 0 0zm0 0z"/>
    <path class="fil6" d="M456 355c0,23 -14,44 -36,53 -21,9 -46,4 -63,-13 -17,-16 -21,-41 -13,-63 9,-21 30,-36 54,-36 32,1 58,27 58,59l0 0 0 0zm0 0z"/>
    <path class="fil4" d="M776 472c-66,47 -142,82 -249,82 -50,0 -60,-53 -94,-27 -17,13 -77,43 -125,42 -48,-3 -125,-31 -147,-133 -9,103 -13,178 -51,264 76,122 258,217 423,176 -17,-124 91,-245 152,-307 24,-25 68,-63 91,-97l0 0 0 0zm0 0z"/>
    <path class="fil6" d="M773 475c-21,19 -45,33 -70,45 -25,12 -51,22 -78,29 -28,7 -56,12 -84,10 -29,-2 -58,-12 -77,-34l1 -1c23,15 51,20 77,22 27,0 54,-2 81,-7 27,-6 53,-14 79,-24 25,-10 50,-23 72,-40l-1 0 0 0zm0 0z"/>
   </g>
  </g>
 </g>
</svg>
