<?xml version="1.0" encoding="UTF-8"?>
<!DOCTYPE svg PUBLIC "-//W3C//DTD SVG 1.1//EN" "http://www.w3.org/Graphics/SVG/1.1/DTD/svg11.dtd">
<!-- Creator: CorelDRAW X7 -->
<svg xmlns="http://www.w3.org/2000/svg" xml:space="preserve" width="369.282mm" height="369.52mm" version="1.1" style="shape-rendering:geometricPrecision; text-rendering:geometricPrecision; image-rendering:optimizeQuality; fill-rule:evenodd; clip-rule:evenodd"
viewBox="0 0 7050 7055"
 xmlns:xlink="http://www.w3.org/1999/xlink">
 <defs>
  <style type="text/css">
   <![CDATA[
    .fil3 {fill:black}
    .fil4 {fill:#3A556A}
    .fil0 {fill:#64798A}
    .fil2 {fill:#FBD670}
    .fil1 {fill:#FEC629}
   ]]>
  </style>
 </defs>
 <g id="Layer_x0020_1">
  <metadata id="CorelCorpID_0Corel-Layer"/>
  <g id="_1772718658896">
   <path class="fil0" d="M5670 4786c598,-80 1071,369 1139,880 81,605 -366,1079 -880,1148 -605,81 -1079,-366 -1147,-880 -82,-613 367,-1078 888,-1148zm-4546 0c599,-80 1072,369 1140,880 80,605 -367,1079 -880,1148 -606,81 -1079,-366 -1148,-880 -82,-613 368,-1078 888,-1148zm4519 -1360c127,-62 218,145 83,204 -122,53 -238,-130 -83,-204zm-3872 -1818c732,-102 1311,445 1399,1065 104,737 -441,1324 -1066,1410 -736,103 -1326,-440 -1411,-1067 -101,-752 440,-1319 1078,-1408zm3899 -1367c598,-81 1071,369 1139,880 81,604 -366,1079 -880,1147 -604,81 -1079,-366 -1147,-880 -82,-613 368,-1077 888,-1147zm-2208 -3c207,-39 364,106 395,269 38,208 -102,370 -270,400 -446,82 -569,-586 -125,-669zm-2955 0c207,-39 365,106 395,269 39,208 -101,370 -269,400 -447,82 -569,-586 -126,-669zm-507 292l0 85c0,262 264,526 526,526l227 -28c62,92 291,449 312,539 -176,118 -296,269 -409,443 -326,502 -242,1234 122,1677 97,118 176,192 299,283 92,68 276,168 400,197 0,111 -54,208 -57,312 -125,-60 -480,12 -576,49 -148,55 -311,142 -414,239 -236,219 -430,520 -430,877 0,401 92,681 366,955 113,114 187,167 339,243 623,313 1367,24 1672,-582 210,-418 143,-965 -142,-1316 -121,-149 -381,-391 -587,-408 1,-43 57,-284 71,-312l298 14c212,0 446,-87 592,-161 242,-121 298,-233 431,-322l209 160c75,57 133,104 209,160l1055 806c75,56 143,116 217,166 -47,177 -184,193 -184,739 0,170 59,346 118,464 194,389 596,715 1061,715 226,0 418,-24 606,-118 389,-195 715,-596 715,-1061 0,-400 -92,-681 -366,-955 -208,-208 -488,-366 -813,-366 -250,0 -428,29 -635,133 -241,120 -230,178 -360,265 -14,-13 -28,-25 -46,-39 -252,-196 -1593,-1192 -1644,-1268 49,-92 167,-285 170,-412 135,0 1642,297 1867,335 25,4 52,5 74,11 71,18 32,-5 57,43 84,158 104,250 360,250 202,0 313,-182 313,-369 0,-303 -432,-452 -639,-142 -69,-33 -386,-75 -489,-94 -171,-30 -332,-62 -493,-89 -170,-28 -840,-172 -993,-172 0,-188 7,-449 -71,-611 102,-24 236,-92 335,-134l844 -349c55,-22 121,-45 171,-71 189,357 592,668 1037,668 400,0 681,-92 955,-366 113,-114 166,-188 243,-340 312,-622 24,-1367 -583,-1671 -622,-313 -1367,-25 -1671,582 -100,199 -123,392 -123,630 0,115 40,184 42,284 -105,51 -219,87 -331,137l-1004 417c-40,-76 -106,-187 -161,-252 -19,-23 -26,-26 -46,-52 -22,-29 -20,-29 -45,-55 -36,-38 -64,-81 -117,-96 4,-48 16,-55 39,-88l373 -537c114,27 127,43 269,43 262,0 526,-264 526,-526l0 -85c0,-262 -264,-525 -526,-525l-85 0c-262,0 -525,263 -525,525 0,158 37,347 156,426 -68,102 -140,196 -210,302l-216 309 -297 -130c-600,-200 -991,62 -1124,73l-312 -525c134,-90 184,-277 184,-455 0,-262 -263,-525 -525,-525l-85 0c-262,0 -526,263 -526,525z"/>
   <path class="fil1" d="M1818 1823l227 0 0 227c191,10 353,111 419,277 119,297 -73,452 -111,518 47,85 95,86 132,229 69,267 -108,550 -440,567l0 227 -227 0 -2 -227 -225 0 0 -1591 227 0 0 -227zm-47 -215c-638,89 -1179,656 -1078,1408 85,627 675,1170 1411,1067 625,-86 1170,-673 1066,-1410 -88,-620 -667,-1167 -1399,-1065z"/>
   <path class="fil2" d="M5946 5687l190 0 1 227 -228 0 0 227 227 0 0 227 -227 0 -1 228 -226 0 0 -228 -227 0 0 -227 227 0 0 -227 -227 0 0 -227 190 0c-74,-108 -361,-442 -385,-498 32,-40 135,-115 175,-136 68,76 318,413 361,443 45,-32 288,-364 360,-443 38,18 146,98 176,136 -26,59 -311,389 -386,498zm-276 -901c-521,70 -970,535 -888,1148 68,514 542,961 1147,880 514,-69 961,-543 880,-1148 -68,-511 -541,-960 -1139,-880z"/>
   <path class="fil2" d="M5682 459l227 0 0 228c206,11 327,137 341,340l-213 0c-105,-124 43,-113 -469,-113 0,370 185,165 440,242 290,87 242,377 242,667l-341 0 0 227 -227 0 0 -228c-206,-12 -327,-135 -341,-340l213 0 57 85c55,48 304,29 412,29 0,-370 -185,-166 -439,-242 -291,-88 -243,-378 -243,-668l341 0 0 -227zm-12 -218c-520,70 -970,534 -888,1147 68,514 543,961 1147,880 514,-68 961,-543 880,-1147 -68,-511 -541,-961 -1139,-880z"/>
   <path class="fil2" d="M910 5459c29,-596 881,-600 908,0l-227 0c-27,-302 -428,-302 -454,0l227 0 0 227 -228 0 0 228 228 0 0 227 -227 0c26,301 427,301 454,0l227 0c-27,598 -879,597 -908,0l-228 0 0 -227 227 0 0 -228 -227 0 0 -227 228 0zm214 -673c-520,70 -970,535 -888,1148 69,514 542,961 1148,880 513,-69 960,-543 880,-1148 -68,-511 -541,-960 -1140,-880z"/>
   <path class="fil3" d="M1816 2959l201 0c336,0 352,455 -13,455l-186 0 -2 -455zm2 -682l199 0c335,0 353,455 -14,455l-185 0 0 -455zm0 -227l-227 0 0 1591 225 0 2 227 227 0 0 -227c332,-17 509,-300 440,-567 -37,-143 -85,-144 -132,-229 38,-66 230,-221 111,-518 -66,-166 -228,-267 -419,-277l0 -227 -227 0 0 227z"/>
   <path class="fil3" d="M910 5459l-228 0 0 227 227 0 0 228 -227 0 0 227 228 0c29,597 881,598 908,0l-227 0c-27,301 -428,301 -454,0l227 0 0 -227 -228 0 0 -228 228 0 0 -227 -227 0c26,-302 427,-302 454,0l227 0c-27,-600 -879,-596 -908,0z"/>
   <path class="fil3" d="M5682 686l-341 0c0,290 -48,580 243,668 254,76 439,-128 439,242 -108,0 -357,19 -412,-29l-57 -85 -213 0c14,205 135,328 341,340l0 228 227 0 0 -227 341 0c0,-290 48,-580 -242,-667 -255,-77 -440,128 -440,-242 512,0 364,-11 469,113l213 0c-14,-203 -135,-329 -341,-340l0 -228 -227 0 0 227z"/>
   <path class="fil3" d="M5260 5189c24,56 311,390 385,498l-190 0 0 227 227 0 0 227 -227 0 0 227 227 0 0 228 226 0 1 -228 227 0 0 -227 -227 0 0 -227 228 0 -1 -227 -190 0c75,-109 360,-439 386,-498 -30,-38 -138,-118 -176,-136 -72,79 -315,411 -360,443 -43,-30 -293,-367 -361,-443 -40,21 -143,96 -175,136z"/>
   <path class="fil4" d="M507 238c-443,83 -321,751 126,669 168,-30 308,-192 269,-400 -30,-163 -188,-308 -395,-269z"/>
   <path class="fil4" d="M3462 238c-444,83 -321,751 125,669 168,-30 308,-192 270,-400 -31,-163 -188,-308 -395,-269z"/>
   <path class="fil1" d="M1818 3414l186 0c365,0 349,-455 13,-455l-201 0 2 455z"/>
   <path class="fil1" d="M1818 2732l185 0c367,0 349,-455 14,-455l-199 0 0 455z"/>
   <path class="fil4" d="M5643 3426c-155,74 -39,257 83,204 135,-59 44,-266 -83,-204z"/>
  </g>
 </g>
</svg>
