<?xml version="1.0" encoding="UTF-8"?>
<!DOCTYPE svg PUBLIC "-//W3C//DTD SVG 1.1//EN" "http://www.w3.org/Graphics/SVG/1.1/DTD/svg11.dtd">
<!-- Creator: CorelDRAW X7 -->
<svg xmlns="http://www.w3.org/2000/svg" xml:space="preserve" width="161.985mm" height="167.882mm" version="1.1" style="shape-rendering:geometricPrecision; text-rendering:geometricPrecision; image-rendering:optimizeQuality; fill-rule:evenodd; clip-rule:evenodd"
viewBox="0 0 900 932"
 xmlns:xlink="http://www.w3.org/1999/xlink">
 <defs>
  <style type="text/css">
   <![CDATA[
    .fil0 {fill:#FEFEFE}
   ]]>
  </style>
 </defs>
 <g id="Layer_x0020_1">
  <metadata id="CorelCorpID_0Corel-Layer"/>
  <g id="_1629391297952">
   <path class="fil0" d="M243 171l0 121 64 0c7,0 12,9 7,15l-140 163c-4,3 -10,3 -13,-1l-139 -161c-5,-6 -1,-16 7,-16l63 0c0,-39 -3,-88 0,-126 16,-159 231,-173 353,-163 30,4 28,48 -1,47 -80,4 -192,23 -201,121l0 0z"/>
   <path class="fil0" d="M532 194l6 0c56,67 149,66 204,0l6 0c58,0 106,47 106,106l0 129 -428 0 0 -129c0,-59 48,-106 106,-106l0 0z"/>
   <path class="fil0" d="M640 0c63,0 115,51 115,114 0,63 -52,115 -115,115 -63,0 -114,-52 -114,-115 0,-63 51,-114 114,-114z"/>
   <path class="fil0" d="M106 696l6 0c55,67 148,67 204,0l6 0c58,0 106,48 106,106l0 130 -428 0 0 -130c0,-58 48,-106 106,-106l0 0z"/>
   <path class="fil0" d="M214 502c63,0 114,52 114,115 0,63 -51,114 -114,114 -63,0 -114,-51 -114,-114 0,-63 51,-115 114,-115z"/>
   <path class="fil0" d="M676 761l0 -120 -64 0c-7,0 -12,-9 -7,-15l140 -163c4,-3 10,-3 13,1l139 161c5,6 1,16 -7,16l-63 0c0,39 3,87 0,126 -16,159 -231,173 -353,163 -30,-4 -28,-49 1,-47 80,-4 192,-23 201,-122l0 0z"/>
  </g>
 </g>
</svg>
