<?xml version="1.0" encoding="UTF-8"?>
<!DOCTYPE svg PUBLIC "-//W3C//DTD SVG 1.1//EN" "http://www.w3.org/Graphics/SVG/1.1/DTD/svg11.dtd">
<!-- Creator: CorelDRAW X7 -->
<svg xmlns="http://www.w3.org/2000/svg" xml:space="preserve" width="54.5494mm" height="54.544mm" version="1.1" style="shape-rendering:geometricPrecision; text-rendering:geometricPrecision; image-rendering:optimizeQuality; fill-rule:evenodd; clip-rule:evenodd"
viewBox="0 0 259 259"
 xmlns:xlink="http://www.w3.org/1999/xlink"
 enable-background="new 0 0 1000 1000">
 <defs>
  <style type="text/css">
   <![CDATA[
    .str0 {stroke:#002B80;stroke-width:2.37432}
    .fil0 {fill:#002B80}
   ]]>
  </style>
 </defs>
 <g id="Layer_x0020_1">
  <metadata id="CorelCorpID_0Corel-Layer"/>
  <g id="_2356818584384">
   <g>
    <path class="fil0 str0" d="M258 32c0,-6 -4,-16 -25,-23 -14,-5 -33,-8 -52,-8 -20,0 -39,3 -53,8 -20,7 -24,17 -24,23 0,1 0,2 0,3 0,1 0,2 0,2l0 31c0,1 0,2 0,3 0,1 0,2 0,2l0 17c-8,-1 -17,-2 -26,-2 -19,0 -38,3 -52,8 -21,7 -25,17 -25,23 0,1 0,2 1,3 -1,1 -1,2 -1,2l0 31c0,1 0,2 1,3 -1,1 -1,2 -1,2l0 31c0,1 0,2 1,3 -1,1 -1,1 -1,2l0 31c0,6 4,16 25,23 14,5 33,8 52,8 20,0 39,-3 53,-8 20,-7 24,-17 24,-23l0 -22c8,1 17,2 26,2 19,0 38,-3 52,-8 21,-7 25,-17 25,-23l0 -31c0,-1 0,-1 0,-2 0,-1 0,-2 0,-3l0 -31c0,-1 0,-1 0,-2 0,-1 0,-2 0,-3l0 -31c0,-1 0,-1 0,-2 0,-1 0,-2 0,-3l0 -31c0,0 0,-1 0,-2 0,-1 0,-2 0,-3zm-11 108c0,3 -5,8 -17,13 -13,4 -31,7 -49,7 -9,0 -18,-1 -26,-2 0,-1 0,-2 0,-3l0 -22c8,1 17,2 26,2 19,0 38,-3 52,-8 6,-2 10,-4 14,-6l0 19 0 0zm-102 -4l0 19c0,3 -5,8 -18,13 -13,5 -30,7 -49,7 -18,0 -36,-2 -49,-7 -12,-5 -17,-10 -17,-13l0 -19c4,2 8,4 14,6 14,5 33,8 52,8 20,0 39,-3 53,-8 6,-2 10,-4 14,-6zm-133 36c4,2 8,4 14,6 14,5 33,8 52,8 20,0 39,-3 53,-8 6,-2 10,-4 14,-6l0 19c0,3 -5,8 -18,13 -13,5 -30,7 -49,7 -18,0 -36,-2 -49,-7 -12,-5 -17,-10 -17,-13l0 -19zm235 -104c0,3 -5,8 -17,13 -13,5 -31,7 -49,7 -19,0 -36,-2 -49,-7 -13,-5 -18,-10 -18,-13l0 -19c4,2 8,4 14,6 14,5 33,8 53,8 19,0 38,-3 52,-8 6,-2 10,-4 14,-6l0 19 0 0zm-115 -49c13,-4 30,-7 49,-7 18,0 36,3 49,7 12,5 17,10 17,13 0,3 -5,9 -17,13 -13,5 -31,7 -49,7 -19,0 -36,-2 -49,-7 -13,-4 -18,-10 -18,-13 0,-3 5,-8 18,-13zm-18 66c4,2 8,4 14,6 14,5 33,8 53,8 19,0 38,-3 52,-8 6,-2 10,-4 14,-6l0 19c0,3 -5,8 -17,13 -13,5 -31,7 -49,7 -9,0 -18,-1 -26,-2 0,-1 0,-2 0,-3 0,-6 -4,-16 -24,-23 -5,-2 -11,-3 -17,-4l0 -7 0 0zm-85 21c13,-4 31,-7 49,-7 19,0 36,3 49,7 13,5 18,10 18,13 0,3 -5,9 -18,13 -13,5 -30,7 -49,7 -18,0 -36,-2 -49,-7 -12,-4 -17,-10 -17,-13 0,-3 5,-8 17,-13zm98 134c-13,4 -30,7 -49,7 -18,0 -36,-3 -49,-7 -12,-5 -17,-10 -17,-13l0 -19c4,2 8,4 14,6 14,5 33,8 52,8 20,0 39,-3 53,-8 6,-2 10,-4 14,-6l0 19c0,3 -5,8 -18,13zm103 -51c-13,4 -31,7 -49,7 -9,0 -18,-1 -26,-2 0,-1 0,-2 0,-3l0 -22c8,1 17,2 26,2 19,0 38,-3 52,-8 6,-2 10,-4 14,-7l0 20c0,3 -5,8 -17,13z"/>
   </g>
  </g>
 </g>
</svg>
