<?xml version="1.0" encoding="UTF-8"?>
<!DOCTYPE svg PUBLIC "-//W3C//DTD SVG 1.1//EN" "http://www.w3.org/Graphics/SVG/1.1/DTD/svg11.dtd">
<!-- Creator: CorelDRAW X7 -->
<svg xmlns="http://www.w3.org/2000/svg" xml:space="preserve" width="50.3177mm" height="46.7276mm" version="1.1" style="shape-rendering:geometricPrecision; text-rendering:geometricPrecision; image-rendering:optimizeQuality; fill-rule:evenodd; clip-rule:evenodd"
viewBox="0 0 261 242"
 xmlns:xlink="http://www.w3.org/1999/xlink"
 enable-background="new 0 0 1000 1000">
 <defs>
  <style type="text/css">
   <![CDATA[
    .str0 {stroke:#002B80;stroke-width:1.03544}
    .fil0 {fill:#002B80}
   ]]>
  </style>
 </defs>
 <g id="Layer_x0020_1">
  <metadata id="CorelCorpID_0Corel-Layer"/>
  <g id="_2356910610384">
   <g>
    <path class="fil0 str0" d="M50 206c-9,0 -15,-7 -15,-15l0 -66c0,-2 -1,-4 -4,-4 -2,0 -3,2 -3,4l0 66c0,13 9,23 22,23 2,0 4,-2 4,-4 0,-2 -2,-4 -4,-4z"/>
    <path class="fil0 str0" d="M69 207l-4 0c-2,0 -4,1 -4,3 0,3 2,4 4,4l4 0c2,0 4,-1 4,-4 0,-2 -2,-3 -4,-3z"/>
    <path class="fil0 str0" d="M233 114l-16 0 0 -36c0,-14 -13,-26 -28,-26l-11 0c-3,-29 -27,-51 -57,-51 -29,0 -54,22 -57,51l-38 0c-15,0 -25,12 -25,26l0 136c0,15 10,27 25,27l163 0c15,0 28,-12 28,-27l0 -31 16 0c15,0 27,-12 27,-27l0 0 0 -16c0,-14 -12,-26 -27,-26zm-112 -98c21,0 38,16 41,36l-82 0c3,-20 20,-36 41,-36zm81 198c0,7 -7,12 -13,12l-163 0c-6,0 -10,-5 -10,-12l0 -136c0,-6 4,-11 10,-11l163 0c6,0 13,5 13,11l0 36 -24 0c-14,0 -26,12 -26,26l0 16c0,15 12,27 26,27l24 0 0 31zm42 -58c0,7 -5,12 -11,12l-55 0c-6,0 -11,-5 -11,-12l0 -16c0,-6 5,-11 11,-11l55 0c6,0 11,5 11,11l0 0 0 16 0 0z"/>
    <path class="fil0 str0" d="M179 148c0,4 3,8 8,8 4,0 7,-4 7,-8 0,-4 -3,-7 -7,-7 -5,0 -8,3 -8,7z"/>
   </g>
  </g>
 </g>
</svg>
