username,total,active,email,date,pwt,usdt
Henry,1555,1201,cjain9497@gmail.com,01.11.2021,3,5000
a1,1136,1091,arunmishra.mlm@gmail.com,01.11.2022,3,5000
Liamm,150,123,ajitkumarmishra690@gmail.com,01.11.2029,3,5000
,,,,,,
,,,,,,
,,,,,,
,,,,,,
,,,,,,
