<?xml version="1.0" encoding="UTF-8"?>
<!DOCTYPE svg PUBLIC "-//W3C//DTD SVG 1.1//EN" "http://www.w3.org/Graphics/SVG/1.1/DTD/svg11.dtd">
<!-- Creator: CorelDRAW X7 -->
<svg xmlns="http://www.w3.org/2000/svg" xml:space="preserve" width="3000mm" height="665.786mm" version="1.1" style="shape-rendering:geometricPrecision; text-rendering:geometricPrecision; image-rendering:optimizeQuality; fill-rule:evenodd; clip-rule:evenodd"
viewBox="0 0 57398 12738"
 xmlns:xlink="http://www.w3.org/1999/xlink"
 enable-background="new 0 0 234.104 51.954">
 <defs>
  <style type="text/css">
   <![CDATA[
    .fil0 {fill:#005E9D}
   ]]>
  </style>
 </defs>
 <g id="Layer_x0020_1">
  <metadata id="CorelCorpID_0Corel-Layer"/>
  <g id="_1873458022080">
   <g>
    <path class="fil0" d="M43764 9770l0 1121c0,1239 -907,1835 -2694,1835 -1404,0 -2667,-419 -2667,-1938l-1 -3018c0,-1519 1264,-1938 2668,-1938 1545,0 2694,335 2694,1770l0 972 -2120 0 0 -1158c0,-270 -115,-522 -574,-522 -434,0 -549,252 -549,522l0 3726c0,270 115,522 549,522 459,0 574,-252 574,-522l13 -1372 2107 0 0 0z"/>
    <path class="fil0" d="M49686 10788c0,1519 -1276,1938 -2681,1938 -1404,0 -2680,-419 -2680,-1938l0 -3018c0,-1519 1276,-1938 2680,-1938 1405,0 2681,419 2681,1938l0 3018zm-3242 354c0,270 115,522 562,522 446,0 561,-252 561,-522l0 -3726c0,-270 -115,-522 -561,-522 -447,0 -562,252 -562,522l0 3726z"/>
    <g>
     <polygon class="fil0" points="50305,12595 50305,5976 53134,5976 53836,9150 53857,9150 54591,5976 57398,5976 57398,12595 55570,12595 55590,8387 55570,8387 54523,12595 53159,12595 52144,8387 52123,8387 52123,12595 "/>
    </g>
    <circle class="fil0" cx="36826" cy="11361" r="1148"/>
   </g>
   <g>
    <polygon class="fil0" points="3892,12566 3892,7482 2442,7482 2442,12566 0,12566 0,0 2442,0 2442,5026 3892,5026 3892,0 6334,0 6334,12566 "/>
    <path class="fil0" d="M9008 8889c-14,1824 302,2083 962,2083 618,0 833,-431 776,-1135l-29 -330 1967 57c29,158 44,374 44,618 0,1422 -704,2556 -2729,2556 -1982,0 -3274,-732 -3274,-4179 0,-3174 1091,-4495 3087,-4495 1796,0 2629,1206 2830,3274 57,575 86,1077 100,1579l-3734 -28zm804 -3173c-603,0 -761,689 -804,2010l1522 0c-86,-1594 -129,-2010 -718,-2010z"/>
    <path class="fil0" d="M18820 7697l-1936 605c0,-269 7,-576 7,-1006 0,-762 -215,-1020 -603,-1020 -603,0 -761,1020 -761,2154l0 4136 -2269 0 0 -8244 2226 0c0,0 29,991 29,1494l101 -287c244,-704 775,-1365 1551,-1365 1163,0 1709,676 1709,2126 -1,747 -9,531 -54,1407z"/>
    <path class="fil0" d="M24408 12738c-1149,0 -1292,-445 -1450,-1063l-130 259c-186,373 -746,804 -1666,804 -1593,0 -2168,-1249 -2168,-2484 0,-1379 632,-2198 2054,-2485l861 -187c876,-186 1049,-402 1049,-1091 0,-776 -316,-1063 -905,-1063 -546,0 -977,345 -977,847 0,288 43,456 77,703l-1817 584c-45,-584 -79,-1102 -79,-1504 0,-1479 1230,-1995 2825,-1995 2297,0 3116,762 3116,1853l0 4797c0,302 244,474 531,474 72,0 130,-15 201,-43l0 1163c-215,158 -947,431 -1522,431zm-1450 -4265c-201,115 -474,216 -689,273 -819,230 -1006,516 -1006,1249 0,718 173,1135 718,1135 532,0 977,-201 977,-1824l0 -833z"/>
    <polygon class="fil0" points="26260,12566 26260,34 28529,34 28529,12566 "/>
    <path class="fil0" d="M33008 12566l0 -1063 -201 359c-244,459 -704,833 -1393,833 -1594,0 -2413,-890 -2413,-4193 0,-2815 833,-4338 2398,-4338 690,0 1164,360 1394,862l100 216 0 -5208 2269 0 0 12532 -2154 0zm-373 -6147c-129,-344 -302,-546 -647,-546 -459,0 -718,690 -718,2571 0,2226 388,2498 790,2498 503,0 804,-502 804,-2484 0,-1062 -71,-1594 -229,-2039z"/>
   </g>
   <g>
    <path class="fil0" d="M8765 3411l-1184 0 0 -3309 1016 0c551,0 797,397 797,909 0,362 -129,582 -353,664 258,77 435,323 435,801 0,685 -263,935 -711,935zm-327 -2757l-168 0 0 758 177 0c155,0 223,-121 223,-340 0,-242 -60,-418 -232,-418zm4 1305l-172 0 0 887 181 0c164,0 280,-86 280,-435 0,-228 -78,-452 -289,-452z"/>
    <path class="fil0" d="M11570 3462c-711,0 -970,-314 -970,-1710 0,-1150 207,-1701 970,-1701 740,0 969,461 969,1701 0,1271 -164,1710 -969,1710zm0 -2847c-220,0 -220,237 -220,1146 0,965 17,1098 220,1098 206,0 219,-138 219,-1098 0,-913 9,-1146 -219,-1146z"/>
    <path class="fil0" d="M14650 3462c-707,0 -991,-332 -991,-840 0,-133 17,-284 56,-392l633 -21c-30,77 -43,210 -43,314 0,207 116,340 315,340 189,0 323,-90 323,-336 0,-228 -138,-344 -379,-486l-392 -232c-276,-160 -483,-457 -483,-828 0,-538 349,-930 1030,-930 589,0 822,323 822,797 0,116 -17,220 -39,293l-624 17c21,-48 47,-125 47,-224 0,-220 -90,-297 -245,-297 -138,0 -242,86 -242,293 0,223 224,357 435,456l280 138c354,172 543,447 543,883 0,616 -263,1055 -1046,1055z"/>
    <polygon class="fil0" points="17983,710 17983,3411 17251,3411 17251,710 16665,710 16665,102 18569,102 18569,710 17983,710 "/>
    <path class="fil0" d="M20555 3462c-711,0 -970,-314 -970,-1710 0,-1150 207,-1701 970,-1701 740,0 969,461 969,1701 0,1271 -164,1710 -969,1710zm0 -2847c-220,0 -220,237 -220,1146 0,965 17,1098 220,1098 207,0 219,-138 219,-1098 1,-913 9,-1146 -219,-1146z"/>
    <polygon class="fil0" points="24065,3411 23359,1662 23359,3411 22760,3411 22760,102 23398,102 24035,1675 24035,102 24608,102 24608,3411 "/>
   </g>
  </g>
 </g>
</svg>
