<?xml version="1.0" encoding="UTF-8"?>
<!DOCTYPE svg PUBLIC "-//W3C//DTD SVG 1.1//EN" "http://www.w3.org/Graphics/SVG/1.1/DTD/svg11.dtd">
<!-- Creator: CorelDRAW X7 -->
<svg xmlns="http://www.w3.org/2000/svg" xml:space="preserve" width="71.8516mm" height="54.7968mm" version="1.1" style="shape-rendering:geometricPrecision; text-rendering:geometricPrecision; image-rendering:optimizeQuality; fill-rule:evenodd; clip-rule:evenodd"
viewBox="0 0 19632 14972"
 xmlns:xlink="http://www.w3.org/1999/xlink">
 <defs>
  <style type="text/css">
   <![CDATA[
    .fil0 {fill:#CE0000}
    .fil1 {fill:white}
   ]]>
  </style>
 </defs>
 <g id="Layer_x0020_1">
  <metadata id="CorelCorpID_0Corel-Layer"/>
  <g id="_2167444421952">
   <g>
    <path class="fil0" d="M1684 13076c156,144 324,274 492,399 799,574 1772,992 2857,1241 1172,262 2389,312 3580,200 536,-50 1066,-137 1597,-250 711,-149 1409,-361 2083,-617 343,-131 686,-274 1016,-430 786,-368 1541,-805 2246,-1310 237,-175 474,-349 698,-543 275,-230 543,-467 798,-723 212,-212 412,-424 605,-655 163,-187 318,-387 468,-586 692,-942 1166,-1946 1379,-2950 218,-1011 168,-2090 -206,-3044 -106,-262 -231,-518 -375,-761 -199,-324 -430,-624 -692,-898 -93,-94 -193,-175 -287,-262 -106,-93 -212,-181 -324,-268 -231,-181 -474,-343 -723,-487 -711,-411 -1504,-698 -2308,-879 -1079,-243 -2196,-299 -3293,-218 -605,43 -1210,131 -1803,262 -729,156 -1453,368 -2151,636 -331,125 -643,262 -955,405 -1041,480 -1977,1054 -2794,1709 -181,144 -349,287 -524,443 -99,87 -199,175 -293,268 -274,262 -530,524 -779,811 -181,212 -356,430 -524,661 -605,842 -1086,1790 -1323,2807 -230,1016 -205,2083 156,3056 32,75 63,149 94,224 94,219 206,431 337,636 131,206 274,406 430,593 162,187 331,368 518,530z"/>
    <g>
     <path class="fil1" d="M16528 4931l0 0c-19,-13 -50,-13 -106,-7 -100,13 -718,75 -986,100 -112,13 -162,56 -212,144 -50,81 -1410,2401 -1410,2401 0,0 1036,-5588 1067,-5744 37,-194 0,-237 -150,-237 -156,0 -860,81 -966,93 -138,19 -188,63 -219,237 -25,131 -1540,8401 -1565,8551 -44,237 -38,243 174,206 125,-19 724,-119 980,-156 74,-13 118,-13 143,-131 25,-119 487,-2545 487,-2545 0,0 779,2221 817,2314 31,88 56,119 168,100 281,-44 923,-150 985,-162 113,-19 131,-50 100,-144 -31,-99 -829,-2395 -829,-2395 0,0 1472,-2419 1528,-2519 25,-44 25,-88 -6,-106z"/>
     <path class="fil1" d="M11819 5542c-194,-75 -593,-193 -1067,-137 -711,81 -1210,393 -1466,879 -261,493 -218,1042 -130,1316 87,275 311,593 623,861 686,605 668,1073 568,1272 -119,243 -462,437 -930,337 -467,-100 -617,-406 -617,-406 0,0 -231,805 -274,961 -63,212 -38,274 162,355 262,106 767,225 1584,63 561,-106 1060,-549 1303,-1011 250,-474 406,-1403 -380,-2108 -636,-573 -705,-673 -773,-798 -125,-224 -25,-493 93,-636 106,-131 243,-193 468,-181 224,13 624,312 624,312 0,0 287,-805 305,-873 38,-94 13,-169 -93,-206z"/>
     <path class="fil1" d="M7509 2897l0 0c-19,-249 -218,-199 -312,-18 -305,611 -4453,8956 -4503,9062 -75,150 -12,175 131,156 106,-13 1023,-156 1297,-200 94,-12 125,-31 156,-99 13,-38 668,-1541 668,-1541l1827 -281c0,0 19,1154 19,1354 0,87 6,143 162,118 175,-25 892,-137 992,-156 180,-31 199,-75 187,-237 -7,-112 -574,-7571 -624,-8158zm-2071 6169l0 0 1329 -3056 12 2850 -1341 206z"/>
    </g>
   </g>
  </g>
 </g>
</svg>
