<?xml version="1.0" encoding="UTF-8"?>
<!DOCTYPE svg PUBLIC "-//W3C//DTD SVG 1.1//EN" "http://www.w3.org/Graphics/SVG/1.1/DTD/svg11.dtd">
<!-- Creator: CorelDRAW X7 -->
<svg xmlns="http://www.w3.org/2000/svg" xml:space="preserve" width="8316.47mm" height="2295.21mm" version="1.1" style="shape-rendering:geometricPrecision; text-rendering:geometricPrecision; image-rendering:optimizeQuality; fill-rule:evenodd; clip-rule:evenodd"
viewBox="0 0 4061427 1120888"
 xmlns:xlink="http://www.w3.org/1999/xlink">
 <defs>
  <style type="text/css">
   <![CDATA[
    .fil12 {fill:none}
    .fil14 {fill:#2A436F}
    .fil10 {fill:#542713}
    .fil9 {fill:#9E512B}
    .fil8 {fill:#D6721E}
    .fil3 {fill:#D6753E}
    .fil7 {fill:#D69547}
    .fil6 {fill:#EDEDBB}
    .fil11 {fill:white}
    .fil0 {fill:url(#id0)}
    .fil5 {fill:url(#id1)}
    .fil1 {fill:url(#id2)}
    .fil4 {fill:url(#id3)}
    .fil2 {fill:url(#id4)}
    .fil13 {fill:url(#id5)}
   ]]>
  </style>
  <linearGradient id="id0" gradientUnits="userSpaceOnUse" x1="226329" y1="612665" x2="272226" y2="474975">
   <stop offset="0" style="stop-opacity:1; stop-color:#EA8632"/>
   <stop offset="-20.2745" style="stop-opacity:1; stop-color:#E07C28"/>
   <stop offset="1" style="stop-opacity:1; stop-color:#D6721E"/>
  </linearGradient>
  <linearGradient id="id1" gradientUnits="userSpaceOnUse" x1="363611" y1="1.09576e+006" x2="679635" y2="84486.4">
   <stop offset="0" style="stop-opacity:1; stop-color:#F0CD59"/>
   <stop offset="58.4" style="stop-opacity:1; stop-color:#F3B03A"/>
   <stop offset="1" style="stop-opacity:1; stop-color:#F7931A"/>
  </linearGradient>
  <linearGradient id="id2" gradientUnits="userSpaceOnUse" x1="233734" y1="821089" x2="264823" y2="727824">
   <stop offset="0" style="stop-opacity:1; stop-color:#EA8632"/>
   <stop offset="-106.769" style="stop-opacity:1; stop-color:#E07C28"/>
   <stop offset="1" style="stop-opacity:1; stop-color:#D6721E"/>
  </linearGradient>
  <linearGradient id="id3" gradientUnits="userSpaceOnUse" x1="643370" y1="767246" x2="800231" y2="767246">
   <stop offset="0" style="stop-opacity:1; stop-color:#D69547"/>
   <stop offset="-29.8392" style="stop-opacity:1; stop-color:#D17F27"/>
   <stop offset="1" style="stop-opacity:1; stop-color:#CC6806"/>
  </linearGradient>
  <linearGradient id="id4" gradientUnits="userSpaceOnUse" x1="251819" y1="366310" x2="296287" y2="188436">
   <stop offset="0" style="stop-opacity:1; stop-color:#EA8632"/>
   <stop offset="7.88627" style="stop-opacity:1; stop-color:#E07C28"/>
   <stop offset="1" style="stop-opacity:1; stop-color:#D6721E"/>
  </linearGradient>
  <linearGradient id="id5" gradientUnits="userSpaceOnUse" x1="196847" y1="767167" x2="353708" y2="767167">
   <stop offset="0" style="stop-opacity:1; stop-color:#D69547"/>
   <stop offset="-120.502" style="stop-opacity:1; stop-color:#D17F27"/>
   <stop offset="1" style="stop-opacity:1; stop-color:#CC6806"/>
  </linearGradient>
 </defs>
 <g id="Layer_x0020_1">
  <metadata id="CorelCorpID_0Corel-Layer"/>
  <g id="_1873641230128">
   <g id="Layer_2">
    <g id="Layer_2-2">
     <path class="fil0" d="M216888 599833c0,-8450 2816,-16900 8449,-22532 -19716,-2817 -36614,-11266 -36614,-30982 0,-19716 16899,-28165 36614,-33799 -8449,-5633 -11266,-14082 -11266,-22532 2817,-45064 95762,-5633 95762,-5633l0 33799 0 2816 0 39431 0 5634 0 33799c0,2815 -90129,42246 -92945,-1z"/>
     <path class="fil1" d="M228154 811071c0,-5634 2816,-11266 5633,-14083 -14083,-2817 -25348,-8449 -25348,-22532 0,-14082 11265,-19716 25348,-22531 -5633,-2817 -8449,-8450 -8449,-14083 0,-30982 64780,-2817 64780,-2817l0 25349 0 28165 0 25348c-1,0 -61964,28166 -61964,-2816z"/>
     <path class="fil2" d="M199988 315365c2817,-8450 11266,-16900 19716,-19716 -22531,-14083 -36614,-30982 -25348,-53514 11266,-22532 33799,-25349 56330,-16899 -5633,-8450 -5633,-19717 0,-28166 22532,-47880 107028,42248 107028,42248l-16899 39431 -2817 5634 -19716 45064 -2817 5634 -16899 36614c2816,-2817 -118294,-5633 -98578,-56330z"/>
     <path class="fil3" d="M363346 1056107c0,0 -157724,67597 -242220,0l25349 -45064 185889 1c2817,0 45065,8449 45065,8449l-14083 36614z"/>
     <path class="fil4" d="M661897 723759c22532,14083 81679,36615 59147,92945 -8449,14083 -19716,28165 -30982,36614 -19716,14083 -2817,19717 8449,16900 11266,0 149275,-30982 84496,-146459 -11266,-22531 -64780,-67596 -112661,-59147 -47880,8450 -19715,53514 -8449,59147z"/>
     <path class="fil5" d="M290117 754741l0 45065c0,0 -11266,157724 -104211,157724 0,0 -160541,16900 -185890,-219688 0,0 -8449,473174 360514,304184l14082 78862 92945 -121110 157724 16899 59148 87313 8449 -459092c0,0 287284,39431 337981,45065 0,0 101395,-599918 -276018,-625267 -498523,-56330 -461909,352065 -461909,352065l-2816 245036 1 92944z"/>
     <path class="fil6" d="M428126 537870c2817,-87313 19716,-115477 39431,-115477 19715,0 39431,73230 39431,166175l-78862 -50698z"/>
     <path class="fil7" d="M633732 405493c0,19716 30982,33798 70413,33798 39431,0 70413,-16899 70413,-33798 0,-16900 -30982,-33799 -70413,-33799 -39431,0 -70413,14084 -70413,33799z"/>
     <path class="fil7" d="M850603 399860c-2817,8449 8449,19716 25349,25349 16899,2817 30982,0 33798,-11266 2817,-11266 -11266,-22532 -25348,-25349 -16899,-2816 -33799,0 -33799,11266z"/>
     <path class="fil7" d="M566135 433658c0,5633 5634,14083 19716,16899 11266,2817 22532,0 25349,-5633 0,-5634 -5634,-14083 -19716,-16900 -14083,-5632 -25349,-2815 -25349,5634z"/>
     <path class="fil7" d="M704145 467457c-2817,5633 5633,14082 16899,16899 11266,2817 22532,0 25348,-5634 2817,-5633 -5633,-14082 -16899,-16899 -11266,-2817 -25348,0 -25348,5634z"/>
     <path class="fil8" d="M515438 723759c0,0 -16899,50697 -42248,64780 16900,22532 47881,45064 81679,-5634 -16899,-16899 -28165,-36614 -36614,-59147 0,0 53514,112661 109844,-2816 0,0 -28165,92944 -70413,61962 -14082,33799 -47880,78863 -87312,2817 -16900,8449 -39431,-5633 -64780,-64779 0,5634 53514,121111 109844,2817z"/>
     <path class="fil3" d="M729493 180172c-2817,-59147 -50697,-107027 -112661,-104211 -14082,0 -28165,2817 -39431,8449 -39431,16900 -64779,56331 -67596,98579 0,36614 16899,70413 47880,90128 56331,30982 126744,11266 157725,-45065 0,-2816 2816,-2816 2816,-5633 8450,-14082 11267,-28164 11267,-42247z"/>
     <path class="fil6" d="M721043 168906c-2817,-56330 -47880,-101395 -104211,-98578 -14082,0 -25348,2817 -36614,8449 -36614,16899 -61963,50697 -61963,92945 -2817,33798 16899,67596 45065,87312 53513,30982 118293,11266 149275,-42248 0,-2816 2817,-2816 2817,-5633 2815,-14082 5631,-28164 5631,-42247z"/>
     <path class="fil9" d="M574584 191438c0,22532 16900,39431 39432,39431 22531,0 39431,-16899 39431,-39431 0,-22532 -16900,-39431 -39431,-39431 -19715,-2817 -36615,14082 -39432,39431 0,-2817 0,-2817 0,0z"/>
     <path class="fil10" d="M588667 185805c0,14083 11266,25349 25349,25349 14082,0 25348,-11266 25348,-25349 0,-14082 -11266,-25348 -25348,-25348 -11266,-2817 -22532,8449 -25349,25348 2817,-2816 0,-2816 0,0z"/>
     <path class="fil11" d="M577401 154823c0,11266 8449,19717 19716,19717 11266,0 19716,-8450 19716,-19717 0,-11265 -8449,-19716 -19716,-19716 -11267,0 -19716,8451 -19716,19716z"/>
     <path class="fil7" d="M597117 312548c45065,0 90128,-16899 123927,-47880 -50697,67596 -146459,81679 -214055,30982 -11266,-8450 -22532,-19716 -30982,-30982 30981,30982 76046,47880 121110,47880z"/>
     <path class="fil7" d="M611199 292833c36614,0 73230,-16899 98578,-42248 -39431,56330 -118293,70413 -174624,30982 -11266,-8449 -19716,-16899 -28165,-25349 30982,25349 67596,39432 104211,36615z"/>
     <path class="fil3" d="M619649 633631c50697,14083 104211,25349 157724,33799 47881,8449 92945,14082 129560,16899 73229,8449 121110,8449 121110,8449 0,0 -45065,-5633 -118294,-16899 -36614,-5633 -81679,-14083 -129559,-22532 -47880,-8449 -101395,-22532 -154909,-36614 -50697,-14083 -101395,-33799 -146458,-56331 -19716,-11265 -39431,-22531 -56331,-36614 -16899,-14083 -28165,-28165 -39431,-47880 -8449,-14083 -11265,-30982 -11265,-47880l0 -5634c0,-2817 0,-2817 0,-5633 0,-2817 0,-5634 0,-8450 0,-2816 0,-5633 2816,-8449 2817,-2815 2817,-5633 2817,-8449 2817,-8449 5633,-14082 8449,-22532l2817 -8449 -5634 8449c-5633,5634 -8449,14083 -11265,22532 0,2817 -2817,5634 -2817,8449 0,2816 -2817,5634 -2817,8449 0,2817 -2817,5634 -2817,11266 0,2817 0,2817 0,5634 0,2817 0,2817 0,5633 -2816,16900 0,33799 8449,50697 8450,19716 22532,36615 36615,53514 16899,16899 36614,30982 59147,42248 50698,22530 101396,42246 152093,56328z"/>
     <g>
      <g>
       <polygon class="fil12" points="763291,326631 1042126,326631 1053392,98493 763291,157640 "/>
      </g>
      <g>
       <path class="fil3" d="M768924 182989c2817,56330 47881,101395 104211,98578 14083,0 25348,-2817 36614,-8449 36615,-16900 61963,-50697 61963,-92945 0,-33799 -16899,-67596 -45064,-87312 -53514,-30982 -118294,-11266 -149276,42247 0,2817 -2816,2817 -2816,5634 -2815,14081 -5632,28164 -5632,42247z"/>
       <path class="fil6" d="M771741 171723c0,53514 47880,98578 101395,95761 14083,0 25348,-2816 36614,-8449 36615,-16899 59148,-50697 61963,-90128 0,-33799 -16899,-64780 -45064,-84496 -50697,-28165 -115477,-11265 -143642,39432 0,2816 -2817,5633 -2817,5633 -5633,14082 -8449,28164 -8449,42247z"/>
       <circle class="fil9" cx="878767" cy="191438" r="39431"/>
       <path class="fil10" d="M850603 185805c0,14083 11266,25349 25349,25349 14082,0 25348,-11266 25348,-25349 0,-14082 -11266,-25348 -25348,-25348 -11266,-2817 -25349,8449 -25349,25348l0 0z"/>
       <path class="fil7" d="M892851 306915c39431,5634 78862,-5633 112661,-28165 -50697,53514 -135193,59147 -191523,8449 -8449,-8449 -16900,-19716 -25349,-30982 28165,28166 64780,47882 104211,50698z"/>
       <path class="fil11" d="M839337 154823c0,11266 8449,19717 19716,19717 11266,0 19716,-8450 19716,-19717 0,-11265 -8449,-19716 -19716,-19716l0 0c-11267,0 -19716,8451 -19716,19716z"/>
       <path class="fil7" d="M901300 287199c33799,-5633 61963,-19716 84496,-45064 -30982,53514 -98578,73230 -152092,45064 -8449,-5633 -16899,-11265 -25349,-19716 28166,16900 61963,25350 92945,19716z"/>
      </g>
     </g>
     <path class="fil7" d="M971713 44979c-36614,76046 -118293,121110 -202789,107028 2817,0 146459,-36615 202789,-107028z"/>
     <path class="fil7" d="M721043 61879c-33799,-16900 -174624,-84496 -230954,8449 11266,-33799 39431,-59147 76045,-64780 56332,-16899 118295,5634 154909,56331z"/>
     <path class="fil13" d="M335181 723759c-22532,14083 -81679,36615 -59147,92945 8449,14083 16899,25349 30982,36614 19716,11266 2817,19717 -8449,16900 -11266,0 -149276,-28165 -84496,-146459 11266,-22531 64780,-67596 112661,-59147 47880,8450 19715,53514 8449,59147z"/>
     <path class="fil14" d="M1253364 650530c0,-25349 2817,-50697 14083,-76046 8449,-22532 19716,-42248 36614,-61963 16900,-16899 36615,-30982 59148,-42248 25348,-11266 53513,-16899 78862,-14082 16899,0 36614,2816 53514,5633 16899,2817 30981,8449 47880,14083l-22532 81679c-11266,-2817 -22532,-5634 -30982,-8449 -14083,-2817 -25348,-5634 -39431,-2817 -25349,-2817 -50697,8449 -67596,28165 -16900,22532 -25349,47880 -22532,76046 -2817,28165 5633,53513 22532,76045 19716,19716 45064,30982 73229,28165 14083,0 28166,0 39432,-2816 14082,-2817 28165,-5634 39431,-11266l14082 84495c-14082,5634 -30982,11266 -45064,14083 -19716,2817 -39431,5633 -59147,5633 -28166,0 -59148,-5633 -87313,-14082 -22532,-8449 -42248,-22532 -59147,-42248 -16899,-16899 -28165,-39431 -33799,-61963 -8447,-25349 -11264,-50699 -11264,-76047z"/>
     <path class="fil14" d="M1960310 650530c0,28165 -2817,53513 -11266,78862 -8449,22531 -19716,42248 -36615,61963 -16899,16899 -33798,30982 -56330,39431 -22532,8449 -47880,14082 -73230,14082 -25348,0 -50697,-5633 -73230,-14082 -22531,-8449 -39431,-22532 -56330,-39431 -16899,-16900 -28165,-39432 -36614,-61963 -8450,-25349 -14083,-50697 -14083,-78862 0,-28166 5633,-53514 14083,-78863 8449,-22531 22531,-42248 36614,-59147 16899,-16899 33799,-30982 56330,-39431 45065,-19716 98579,-19716 143642,0 22532,8449 39431,22532 56331,39431 16899,16899 28165,39431 36614,59147 11267,25349 14084,53514 14084,78863zm-104211 0c2817,-25349 -5634,-53514 -19716,-76046 -22532,-30982 -64780,-36614 -95762,-14083 -5633,2817 -8449,8450 -14082,14083 -14083,22532 -19716,47880 -19716,76046 -2817,28165 5633,53513 19716,76045 11266,19716 33798,28165 56330,28165 22532,0 42248,-8449 53514,-28165 14082,-22532 22532,-47880 19716,-76045z"/>
     <path class="fil14" d="M2171548 363246c0,16899 -5634,33799 -16900,45064 -11265,11266 -28165,16900 -45064,16900 -16899,0 -30982,-5634 -42248,-16900 -11266,-11265 -19716,-28165 -16899,-45064 0,-16899 5633,-33799 19716,-45065 25348,-22531 61963,-22531 87312,0 8450,11266 16899,28166 14083,45065zm-8449 473174l-104211 0 0 -366147 104211 0 0 366147z"/>
     <path class="fil14" d="M2278575 481539c50697,-14082 104211,-19716 154909,-19716 25348,0 53514,2817 78862,11266 19716,8449 36614,19716 47880,33799 11266,16899 19716,33798 25349,53513 5633,22532 8449,45065 8449,67597l0 205605 -104210 0 0 -194339c2817,-25349 -2816,-47881 -14082,-70413 -11266,-14083 -30982,-22532 -50697,-19716 -8449,0 -16900,0 -22532,0l-22532 2816 0 281651 -104212 1 2816 -352064z"/>
     <path class="fil14" d="M2979888 540685l-33799 36615c-14082,16899 -28165,33798 -45064,53513 -16900,19717 -33799,39432 -50697,59148 -16900,19716 -30982,42247 -45065,61962l177441 2 0 87312 -304183 -1 0 -61963c11266,-19716 22531,-36614 33798,-53514 14083,-19716 28166,-39431 42248,-59147 14083,-19716 30982,-39431 45065,-56330 14082,-16900 28165,-33799 42248,-50697l-154910 0 0 -87313 290101 1 0 70412 2817 0z"/>
     <path class="fil14" d="M3182677 363246c0,16899 -5634,33799 -19716,45064 -11266,11266 -28165,16900 -42248,16900 -16899,0 -30982,-5634 -42248,-16900 -11266,-11265 -19716,-28165 -19716,-45064 0,-16899 5634,-33799 19716,-45065 25349,-22531 61963,-22531 87313,0 11265,11266 16899,28166 16899,45065zm-11267 473174l-104211 0 0 -366147 104211 0 0 366147z"/>
     <path class="fil14" d="M3433346 842053c-25348,0 -50697,-2817 -73230,-11266 -16899,-5634 -30982,-14083 -45064,-25349 -11266,-11266 -19716,-25348 -22532,-39431 -2817,-16899 -5633,-33799 -5633,-53514l0 -402761 104210 -16899 0 397129c0,8449 0,16899 2817,25348 0,5634 2817,14083 8449,19716 5634,5634 11266,11266 16900,11266 8449,2817 19716,5633 30981,5633l-16898 90128z"/>
     <path class="fil14" d="M3669934 842053c-25349,0 -50697,-2817 -73230,-11266 -16899,-5634 -30982,-14083 -45065,-25349 -11265,-11266 -19716,-25348 -22531,-39431 -2817,-16899 -5634,-33799 -5634,-53514l0 -402761 104211 -16899 0 397129c0,8449 0,16899 2817,25348 0,5634 2816,14083 8449,19716 5633,5634 11266,11266 16899,11266 8449,2817 19716,5633 30982,5633l-16898 90128z"/>
     <path class="fil14" d="M3903704 461823c25348,0 50697,2817 76045,11266 19716,5633 36615,16899 47880,30982 11266,14083 22532,30982 25349,47880 5633,19716 8449,42248 8449,61963l0 214055c-14082,2817 -36614,5633 -61963,11266 -30982,5633 -64779,8449 -95761,5633 -22532,0 -42248,-2816 -64780,-5633 -16899,-2817 -33799,-11266 -50697,-19716 -14083,-8449 -25348,-22532 -30982,-36615 -8449,-16899 -11266,-36614 -11266,-56330 0,-19716 2817,-36614 14083,-53514 8449,-14082 19716,-25348 33799,-36614 14082,-8449 30981,-14083 50697,-19716 19716,-2817 39431,-5634 59147,-5634 11266,0 22531,0 36614,2817 8449,0 16899,2817 25349,5634l0 -8450c0,-16899 -5634,-30981 -16900,-42247 -16899,-11266 -36614,-16900 -56330,-16900 -16900,0 -33799,0 -53514,2817 -14083,2817 -30982,5633 -45064,11266l-14083 -84496 22532 -5633c8449,-2817 19716,-2817 30982,-5634 11266,-2816 22531,-2816 33798,-2816 11267,0 25350,-5631 36616,-5631zm8450 301367c11266,0 19716,0 28165,0 8449,0 14083,0 22532,-2816l0 -78863c-5634,0 -11266,-2816 -19716,-2816 -8449,0 -16900,0 -22532,0 -8449,0 -19716,0 -28165,2816 -8449,0 -14083,2817 -22532,5634 -5633,2817 -11266,8449 -14083,14083 -11265,19716 -5633,42247 11266,53513 14083,8449 28166,11266 45065,8449z"/>
    </g>
   </g>
  </g>
 </g>
</svg>
