<?xml version="1.0" encoding="UTF-8"?>
<!DOCTYPE svg PUBLIC "-//W3C//DTD SVG 1.1//EN" "http://www.w3.org/Graphics/SVG/1.1/DTD/svg11.dtd">
<!-- Creator: CorelDRAW X7 -->
<svg xmlns="http://www.w3.org/2000/svg" xml:space="preserve" width="825.255mm" height="88.0676mm" version="1.1" style="shape-rendering:geometricPrecision; text-rendering:geometricPrecision; image-rendering:optimizeQuality; fill-rule:evenodd; clip-rule:evenodd"
viewBox="0 0 13046 1392"
 xmlns:xlink="http://www.w3.org/1999/xlink">
 <defs>
  <style type="text/css">
   <![CDATA[
    .fil0 {fill:#2B2A29;fill-rule:nonzero}
   ]]>
  </style>
 </defs>
 <g id="Layer_x0020_1">
  <metadata id="CorelCorpID_0Corel-Layer"/>
  <path class="fil0" d="M1396 719l-92 -22c-39,205 -158,322 -327,322 -201,0 -296,-152 -296,-477 0,-306 95,-465 276,-465 164,0 272,113 339,360l78 -9 -15 -422 -63 0 -80 72c-98,-59 -165,-78 -270,-78 -325,0 -558,238 -558,568 0,154 45,275 140,380 102,112 227,162 400,162 261,0 412,-127 468,-391zm936 24c0,-210 -176,-375 -400,-375 -235,0 -409,159 -409,372 0,214 170,370 403,370 233,0 406,-156 406,-367zm-255 -2c0,188 -55,292 -150,292 -98,0 -149,-98 -149,-293 0,-195 52,-296 151,-296 114,0 148,130 148,297zm1693 347l0 -75 -21 0c-94,0 -96,-11 -96,-68l0 -363c0,-121 -100,-214 -232,-214 -94,0 -162,38 -231,132 -31,-82 -110,-132 -208,-132 -99,0 -178,45 -237,138l0 -116 -336 10 0 75 23 0c90,0 95,8 95,139l0 329c0,61 -2,70 -96,70l-22 0 0 75 435 0 0 -75c-75,-2 -85,-11 -85,-68l0 -267c0,-105 53,-173 134,-173 58,0 81,40 81,137l0 301c0,59 -10,68 -84,70l0 75 402 0 0 -75c-76,-2 -86,-11 -86,-68l0 -267c0,-105 52,-173 134,-173 56,0 81,40 81,131l0 309c0,57 -10,66 -85,68l0 75 434 0zm1422 0l0 -75 -21 0c-95,0 -96,-11 -96,-68l0 -363c0,-121 -100,-214 -232,-214 -94,0 -162,38 -232,132 -31,-82 -109,-132 -208,-132 -99,0 -177,45 -236,138l0 -116 -337 10 0 75 24 0c90,0 95,8 95,139l0 329c0,61 -2,70 -96,70l-23 0 0 75 436 0 0 -75c-75,-2 -86,-11 -86,-68l0 -267c0,-105 53,-173 135,-173 57,0 81,40 81,137l0 301c0,59 -10,68 -84,70l0 75 401 0 0 -75c-75,-2 -85,-11 -85,-68l0 -267c0,-105 51,-173 134,-173 56,0 81,40 81,131l0 309c0,57 -10,66 -85,68l0 75 434 0zm1015 -16l0 -80 -41 0c-69,0 -81,-10 -81,-63l0 -539 -350 10 0 75 23 0c91,0 95,6 95,144l0 118c0,73 -6,115 -25,152 -24,50 -75,84 -132,84 -73,0 -104,-46 -104,-158l0 -425 -350 10 0 75 23 0c92,0 93,3 95,144l0 187c0,109 3,136 23,177 40,81 119,127 219,127 105,0 176,-38 261,-143l0 121 344 -16zm1013 16l0 -75 -21 0c-94,0 -96,-9 -96,-70l0 -314c0,-92 -16,-148 -56,-191 -40,-45 -106,-70 -183,-70 -116,0 -190,42 -263,152l0 -130 -338 10 0 75 23 0c90,0 94,6 94,144l0 324c0,61 -1,70 -96,70l-21 0 0 75 451 0 0 -75c-87,0 -102,-11 -102,-68l0 -213c0,-66 6,-105 23,-140 24,-53 76,-87 129,-87 69,0 108,50 108,145l0 295c0,57 -15,68 -102,68l0 75 450 0zm529 0l0 -75 -24 0c-90,0 -92,-11 -92,-68l0 -555 -347 10 0 75 21 0c90,0 95,8 95,139l0 329c0,59 -2,70 -95,70l-21 0 0 75 463 0zm-127 -930c0,-56 -48,-103 -104,-103 -57,0 -105,47 -105,103 0,58 48,105 104,105 57,0 105,-46 105,-105zm767 689c0,-7 0,-19 -1,-34l-78 0c0,110 -31,172 -93,172 -43,0 -55,-27 -55,-127l0 -380 192 0 0 -88 -192 0 0 -293 -93 0c-24,189 -103,288 -244,305l0 76 105 0 0 353c0,121 6,157 31,198 31,52 95,81 179,81 168,0 249,-122 249,-263zm914 -382l0 -75 -332 0 0 75 22 0c64,0 93,21 93,59 0,16 -6,43 -13,61l-123 270 -156 -319c-8,-15 -12,-30 -12,-40 0,-21 16,-31 52,-31l26 0 0 -75 -419 0 0 75c56,2 65,12 90,59l303 588 -34 63c-40,75 -83,118 -126,117 -7,0 -13,-5 -13,-9 0,-16 13,-31 13,-55 0,-59 -46,-100 -111,-100 -72,0 -128,56 -128,128 0,82 72,136 183,136 124,0 211,-75 292,-249l259 -557c41,-90 74,-118 134,-121zm1528 -146c0,-205 -150,-297 -463,-297l-587 0 0 81 23 0c76,0 107,6 121,21 10,13 10,18 10,112l0 639c0,95 0,99 -10,113 -14,14 -45,20 -121,20l-23 0 0 80 585 0 0 -80 -32 0c-79,0 -110,-6 -123,-20 -10,-14 -10,-18 -10,-113l0 -245 165 0c309,0 465,-104 465,-311zm-285 -2c0,170 -69,232 -260,232l-85 0 0 -357c0,-72 14,-89 81,-89l59 0c140,0 205,67 205,214zm1131 426c0,-210 -176,-375 -400,-375 -235,0 -409,159 -409,372 0,214 170,370 403,370 233,0 406,-156 406,-367zm-255 -2c0,188 -55,292 -149,292 -99,0 -150,-98 -150,-293 0,-195 52,-296 151,-296 114,0 148,130 148,297zm990 118c0,-62 -22,-113 -63,-150 -39,-34 -70,-48 -176,-74l-133 -33c-72,-19 -91,-34 -91,-72 0,-50 51,-86 124,-86 94,0 164,51 236,172l69 0 -6 -234 -63 0 -55 33c-56,-33 -112,-47 -183,-47 -165,0 -285,100 -285,239 0,56 22,108 62,146 45,43 87,63 183,84l108 24c74,16 103,41 103,85 0,53 -48,87 -126,87 -114,0 -198,-63 -269,-203l-67 0 8 255 62 0 57 -26c55,32 132,51 209,51 174,0 296,-103 296,-251zm634 -12c0,-7 0,-19 -2,-34l-78 0c0,110 -31,172 -93,172 -43,0 -55,-27 -55,-127l0 -380 192 0 0 -88 -192 0 0 -293 -93 0c-23,189 -103,288 -243,305l0 76 104 0 0 353c0,121 6,157 31,198 31,52 95,81 179,81 168,0 250,-122 250,-263z"/>
  <path class="fil0" d="M122 813l-116 6 0 282 116 6 0 -22c-32,-6 -48,-12 -63,-22 -21,-14 -30,-30 -30,-49 0,-13 3,-16 17,-16l206 0c27,0 29,0 32,3 5,4 7,13 7,36l0 9 23 0 0 -172 -23 0 0 9c0,23 -2,32 -7,36 -3,3 -5,3 -32,3l-206 0c-14,0 -17,-3 -17,-16 0,-18 7,-32 25,-46 15,-11 33,-18 68,-25l0 -22zm192 -290l-22 0 0 6c0,27 -2,27 -20,27l-91 0c-26,0 -42,5 -55,17 -13,11 -20,30 -20,52 0,32 12,54 39,72l-145 0 6 103 22 0 0 -9c0,-26 1,-26 41,-27l204 0c17,0 19,1 19,28l0 6 22 0 0 -130 -22 0c0,25 -2,29 -20,29l-61 0c-19,0 -30,-1 -40,-6 -16,-7 -25,-22 -25,-37 0,-20 14,-31 41,-31l86 0c16,0 19,5 19,30l22 0 0 -130zm-62 -238l-8 21c33,17 47,36 47,64 0,32 -20,57 -74,57l0 -142 -7 0c-64,0 -104,39 -104,102 0,66 48,114 109,114 61,0 105,-44 105,-115 0,-50 -22,-82 -68,-101zm-72 67c10,0 13,3 13,11l0 64c-40,0 -65,-16 -65,-42 0,-21 18,-33 52,-33z"/>
 </g>
</svg>
