<?xml version="1.0" encoding="UTF-8"?>
<!DOCTYPE svg PUBLIC "-//W3C//DTD SVG 1.1//EN" "http://www.w3.org/Graphics/SVG/1.1/DTD/svg11.dtd">
<!-- Creator: CorelDRAW X7 -->
<svg xmlns="http://www.w3.org/2000/svg" xml:space="preserve" width="127.785mm" height="39.6524mm" version="1.1" style="shape-rendering:geometricPrecision; text-rendering:geometricPrecision; image-rendering:optimizeQuality; fill-rule:evenodd; clip-rule:evenodd"
viewBox="0 0 12820 3978"
 xmlns:xlink="http://www.w3.org/1999/xlink">
 <defs>
  <style type="text/css">
   <![CDATA[
    .fil1 {fill:#5F01D1}
    .fil0 {fill:#5F01D1;fill-rule:nonzero}
   ]]>
  </style>
 </defs>
 <g id="Layer_x0020_1">
  <metadata id="CorelCorpID_0Corel-Layer"/>
  <g id="_2167300854064">
   <path class="fil0" d="M10698 3456c0,-101 21,-192 65,-271 44,-80 105,-142 184,-186 78,-44 167,-67 267,-67 122,0 226,33 313,97 86,64 145,152 174,263l-275 0c-21,-43 -50,-75 -87,-98 -38,-22 -80,-34 -128,-34 -77,0 -140,27 -187,81 -48,54 -72,125 -72,215 0,90 24,161 72,215 47,53 110,80 187,80 48,0 90,-11 128,-33 37,-23 66,-55 87,-98l275 0c-29,111 -88,198 -174,262 -87,64 -191,96 -313,96 -100,0 -189,-22 -267,-67 -79,-44 -140,-106 -184,-185 -44,-79 -65,-169 -65,-270zm1795 333l-383 0 -61 182 -262 0 371 -1027 290 0 372 1027 -265 0 -62 -182zm-64 -193l-127 -376 -126 376 253 0z"/>
   <g>
    <path class="fil1" d="M3885 2390l588 0 0 -886c0,-90 31,-197 105,-240 116,-67 309,-28 309,206l0 920 588 0 0 -1065c0,-245 -104,-472 -301,-572 -135,-69 -342,-80 -485,-22 -17,7 -40,15 -54,23 -34,19 -81,51 -109,78l-57 58 0 -890 -584 0 0 2390z"/>
    <path class="fil1" d="M2799 1904c-180,0 -341,-146 -341,-323 0,-118 26,-185 106,-266 54,-55 167,-98 242,-91 61,6 89,11 136,30 19,8 39,20 54,31l83 84c67,93 79,229 31,335 -17,38 -41,73 -69,101 -62,62 -154,99 -242,99zm-162 529c128,0 203,-2 321,-58 30,-15 67,-39 91,-58l78 -76 0 149 567 0 0 -1657 -567 0 0 153c-97,-111 -250,-192 -413,-192 -147,0 -268,18 -385,88 -42,25 -84,48 -121,80l-79 74c-107,107 -192,288 -222,439 -10,53 -15,123 -19,185l4 92c3,28 8,61 13,90 26,154 104,330 214,442 22,24 43,50 77,76 123,96 277,173 441,173z"/>
    <path class="fil1" d="M452 3008l622 0 59 -141c10,-22 19,-45 29,-69l206 -497c20,-46 40,-96 59,-142l118 -286c74,-185 162,-383 236,-569 22,-54 232,-548 234,-571l-618 0 -237 602c-16,42 -34,80 -49,122 -14,39 -30,78 -47,119l-46 124c-13,-10 -92,-223 -98,-239l-237 -607c-8,-22 -15,-38 -24,-60 -8,-22 -14,-42 -24,-61l-635 0 240 569c21,49 39,93 59,142l392 924c17,42 19,26 0,70 -70,162 -140,338 -210,497 -8,19 -25,53 -29,73z"/>
    <path class="fil1" d="M8022 1564c0,-93 37,-168 93,-235l44 -37c156,-106 366,-69 465,79 139,207 23,525 -278,525 -52,0 -95,-13 -133,-29 -26,-11 -81,-49 -98,-68l-35 -46c-36,-54 -58,-126 -58,-189zm-558 0c0,202 68,399 193,552 9,12 13,18 23,28 33,32 31,36 81,81 54,47 130,93 196,124 192,89 424,109 631,57 26,-6 58,-15 82,-24 27,-10 49,-20 75,-32 70,-30 139,-75 196,-123 11,-9 16,-16 27,-24l79 -84c49,-64 89,-119 121,-198 116,-286 95,-595 -75,-849 -16,-24 -26,-40 -45,-61 -67,-77 -82,-94 -168,-156 -122,-89 -316,-161 -483,-161 -162,0 -295,13 -434,81 -23,11 -49,23 -71,36 -56,33 -76,50 -125,88 -44,34 -121,121 -154,170 -54,82 -109,198 -127,299 -12,67 -22,124 -22,196z"/>
    <path class="fil1" d="M6489 1896c-361,0 -436,-444 -200,-604 126,-85 299,-81 405,15 57,51 91,100 109,181 12,55 12,93 1,148 -14,65 -53,140 -105,181 -62,48 -116,79 -210,79zm-895 -332c0,183 55,355 146,492 116,174 301,299 503,349 205,51 447,34 632,-55l196 -123c43,-37 52,-52 79,-79 57,-57 116,-157 147,-228 21,-50 40,-103 52,-161 55,-266 -1,-540 -171,-748 -88,-108 -180,-173 -303,-234 -269,-135 -677,-103 -918,76 -28,20 -99,76 -119,98 -156,170 -244,365 -244,613z"/>
    <path class="fil1" d="M10838 0l-694 0c-8,15 -12,27 -20,44 -7,19 -12,30 -20,48l-193 468c-14,31 -26,60 -39,93 -85,216 -187,444 -273,660 -12,32 -25,63 -39,93l-38 98 694 0c7,-13 14,-29 20,-44 8,-19 12,-31 20,-49 14,-32 26,-61 38,-93 60,-153 133,-314 194,-467l332 -802c6,-16 15,-34 18,-49z"/>
    <path class="fil1" d="M6736 3664c-55,0 -98,-26 -129,-50 -110,-89 -66,-328 133,-328 104,0 192,85 192,186 0,110 -87,192 -196,192zm-54 307l-60 0c-60,-5 -121,-23 -176,-51 -144,-75 -239,-258 -239,-444 0,-147 53,-263 119,-345 112,-139 324,-198 492,-116 65,31 78,64 105,82l0 -93 341 0 0 941 -341 0 0 -94c-30,20 -36,48 -102,81 -45,23 -92,35 -139,39z"/>
    <path class="fil1" d="M7750 3106l0 -102 -337 0c-10,0 -13,3 -13,12l0 929 350 0 0 -520c0,-60 41,-132 106,-132 42,0 71,1 101,40 16,21 27,57 27,92l0 520 345 0 0 -635c0,-83 -35,-172 -86,-233 -106,-126 -358,-146 -482,15 -4,5 -8,9 -11,14z"/>
    <path class="fil1" d="M5534 3106l0 -102 -345 0 0 941 345 0 0 -490c0,-191 169,-197 218,-107 18,32 21,80 21,128l0 469 345 0 0 -588c0,-422 -391,-442 -540,-301 -16,14 -28,40 -44,50z"/>
    <path class="fil1" d="M9867 3366l-315 0c3,-138 232,-174 297,-54 4,8 7,14 10,23 3,11 3,21 8,31zm-656 110c0,104 26,203 76,282l38 52c7,9 7,11 15,19 78,86 226,142 344,142 149,0 256,-14 371,-103 32,-24 101,-91 110,-132l-294 -110c-61,91 -199,98 -271,37 -49,-42 -46,-88 -53,-101l580 0c89,0 72,21 72,-103 0,-272 -207,-481 -473,-481 -155,0 -271,44 -376,148 -85,85 -139,221 -139,350z"/>
    <path class="fil1" d="M4013 2940l0 64 -128 0 0 268c0,10 3,13 13,13l115 0 0 660 341 0 0 -660 222 0c9,0 12,-3 12,-13l0 -268 -234 0c0,-101 40,-162 145,-162 49,0 66,12 102,21l0 -285c-38,-9 -63,-30 -132,-30 -96,0 -140,-3 -232,36 -133,55 -224,199 -224,356z"/>
    <path class="fil1" d="M8423 3455c0,130 26,253 110,346 25,28 16,23 44,45 50,41 53,49 127,82 55,25 120,39 187,43l61 0c71,-4 141,-21 199,-51l0 -316c-164,111 -379,54 -379,-132 0,-162 186,-229 342,-150 13,6 26,15 37,18l0 -315c-46,-11 -95,-47 -213,-47 -180,0 -300,60 -399,167 -24,26 -57,79 -71,112 -27,66 -45,122 -45,198z"/>
    <path class="fil1" d="M9309 2041c0,101 53,227 125,283 99,77 144,96 284,96 185,0 366,-181 366,-367 0,-82 0,-125 -38,-200 -24,-48 -41,-68 -78,-105 -138,-140 -391,-139 -543,13 -60,60 -116,160 -116,280z"/>
    <polygon class="fil1" points="4703,3945 5049,3945 5049,3004 4703,3004 "/>
    <path class="fil1" d="M4682 2727c0,107 89,191 175,191 72,0 102,-2 159,-58 119,-120 24,-321 -134,-321 -65,0 -103,16 -146,59 -28,28 -54,73 -54,129z"/>
   </g>
  </g>
 </g>
</svg>
