<?xml version="1.0" encoding="UTF-8"?>
<!DOCTYPE svg PUBLIC "-//W3C//DTD SVG 1.1//EN" "http://www.w3.org/Graphics/SVG/1.1/DTD/svg11.dtd">
<!-- Creator: CorelDRAW X7 -->
<svg xmlns="http://www.w3.org/2000/svg" xml:space="preserve" width="301.272mm" height="31.3861mm" version="1.1" style="shape-rendering:geometricPrecision; text-rendering:geometricPrecision; image-rendering:optimizeQuality; fill-rule:evenodd; clip-rule:evenodd"
viewBox="0 0 3171 330"
 xmlns:xlink="http://www.w3.org/1999/xlink">
 <defs>
  <style type="text/css">
   <![CDATA[
    .fil0 {fill:#241F1E}
    .fil3 {fill:#242121}
    .fil2 {fill:#25201E}
    .fil1 {fill:#2A2522}
   ]]>
  </style>
 </defs>
 <g id="Layer_x0020_1">
  <metadata id="CorelCorpID_0Corel-Layer"/>
  <g id="_1625570991776">
   <path class="fil0" d="M2439 56c11,0 15,-1 15,11l0 226c0,18 -15,3 -15,34 41,0 80,7 69,-16 -4,-7 -13,-5 -13,-18l0 -104 56 0 0 100c0,15 -2,18 -15,19l0 15c13,7 53,4 70,4 0,-4 1,-7 0,-11 -3,-8 -1,-3 -4,-7 -3,-6 -10,-4 -10,-16l0 -226c0,-12 4,-11 14,-11l0 -19 -70 0 0 19c10,0 15,-1 15,11l0 96 -56 0 0 -96c0,-12 4,-11 15,-11l0 -19 -71 0 0 19z"/>
   <path class="fil0" d="M1905 297c-18,0 -26,2 -26,-11l0 -227c67,0 67,67 67,130 0,27 -8,108 -41,108zm-82 -241c10,0 15,-1 15,11l0 226c0,13 -9,11 -13,18 -11,22 25,16 61,16 71,0 100,-71 100,-127 0,-53 4,-82 -26,-129 -27,-41 -73,-34 -126,-34 -12,0 -11,7 -11,19z"/>
   <path class="fil1" d="M85 78c31,7 84,2 119,3 19,1 19,4 37,4l123 0c19,0 21,4 37,4 0,42 3,49 9,87 5,27 2,59 2,87 -7,-2 -24,-19 -67,-3 -11,4 5,1 -10,4l-7 0c-1,0 -2,0 -2,-1 -13,-4 2,-5 -18,-6l-23 2c-24,2 -36,-7 -47,-11 -19,-7 -29,2 -46,-10 -12,-9 -1,-7 -18,-11 -17,-3 -16,6 -21,-9 -9,-22 7,-90 -4,-114 -17,-8 -52,-4 -75,-4 5,-9 9,-13 11,-22zm-78 0c23,0 20,7 30,22 -14,-1 -12,-4 -30,-4l0 -18zm23 -34c0,-36 52,-36 52,4 0,25 -52,35 -52,-4zm-19 -3c0,13 3,20 8,29l-19 0 0 38c64,0 35,2 50,5 22,5 -2,-3 17,-2l74 5c0,20 -4,25 -4,47l0 60c0,4 -2,8 17,17 18,9 8,-3 23,6 12,8 4,9 24,13 10,2 25,4 33,4 2,22 10,12 22,12 17,0 -5,-1 21,6 30,9 5,-1 26,0 16,1 13,8 26,7 9,-1 23,-10 31,-10 17,0 5,4 18,2 9,-1 6,-4 15,-1 16,6 13,10 38,10 9,-38 -2,-115 -9,-162 -2,-11 -1,-42 -6,-53 -23,-11 -127,-2 -164,-4l-159 0c1,-7 7,-21 7,-26 0,-57 -89,-59 -89,-3z"/>
   <path class="fil2" d="M2881 171l6 17c1,6 2,12 3,18 3,15 6,23 6,39l-30 0 15 -74zm-122 48l0 -78c16,0 29,2 29,37 0,22 -6,39 -29,41zm-30 93l-11 0 0 11c12,7 37,4 52,4 -1,-32 -12,2 -12,-41 0,-17 1,-35 1,-52l30 74c8,29 14,17 40,17l26 2c14,0 2,1 11,-4 -2,-25 -11,-4 -11,-19 0,-20 4,-22 4,-41l44 0c1,14 5,29 8,41 -13,18 -11,-4 -11,23 78,0 47,1 38,-38 -5,-20 -8,-37 -12,-55 -5,-22 -23,-89 -23,-108 -28,0 -23,-1 -27,17 -7,32 -31,155 -43,172 -14,-7 -8,1 -15,-15 -3,-7 -5,-16 -8,-25 -4,-14 -14,-35 -14,-52 15,-4 22,-25 22,-41 0,-68 -37,-56 -100,-56 4,36 11,-32 11,86 0,33 0,66 0,100z"/>
   <path class="fil0" d="M962 163c0,48 -3,80 21,124 21,39 40,43 71,43 27,0 39,-15 56,-26 0,-16 -10,-80 1,-102l10 -24 -70 0 0 19c27,2 18,17 18,89 0,12 -6,26 -18,26 -66,0 -65,-256 0,-256 41,0 27,60 55,63l-3 -37c-1,-16 0,-33 0,-49l-11 0 -5 15c-13,-3 -46,-33 -84,1 -22,21 -41,77 -41,114z"/>
   <path class="fil0" d="M520 111c25,-2 10,-11 19,-33 6,-15 14,-15 36,-15 -9,20 -3,198 -3,238 -14,9 -17,5 -19,22 13,7 50,4 67,4 14,0 1,1 11,-4l0 -15c-15,-1 -18,-7 -18,-22l0 -223c19,0 26,-2 33,15 3,5 7,25 7,33l12 0c0,-19 -2,-28 -3,-41 -4,-41 24,-33 -127,-33 -22,0 -5,30 -15,74z"/>
   <path class="fil2" d="M1396 174c-4,-5 -4,8 -4,-11 4,5 3,-4 4,11zm0 0l33 153c14,-5 8,-4 16,-37 3,-12 6,-27 9,-43l20 -87c0,29 6,124 -6,149 -4,9 -5,-5 -5,18 18,0 36,2 48,-4 -4,-38 -11,39 -11,-97l1 -80c7,-23 7,7 10,-20l-44 0c-1,17 -8,46 -12,62l-13 58c-1,1 -1,2 -1,3 -33,-140 -5,-123 -71,-123 7,24 12,-5 11,52 0,17 4,115 -3,131 -4,8 -17,11 0,17 11,4 23,0 29,-3 -9,-34 -11,27 -11,-67 0,-27 0,-54 0,-82z"/>
   <path class="fil0" d="M679 148l0 153c0,20 -8,-4 -11,22 11,6 22,4 41,4 14,0 2,1 11,-4 -9,-36 -15,33 -15,-93l41 0c0,135 -6,52 -11,93 11,6 22,4 41,4 14,0 1,1 11,-4 -3,-13 -15,-11 -15,-37l0 -123c0,-13 3,-14 4,-26l11 0 0 -11 -52 0c5,45 11,-44 11,86l-41 0c0,-115 6,-51 15,-86l-52 0c3,26 11,2 11,22z"/>
   <path class="fil2" d="M3108 304l-11 0 0 -163c29,0 44,11 44,67 0,26 2,50 -7,75 -4,12 -10,21 -26,21zm63 -100l0 47c-6,40 -29,76 -78,76 -65,0 -26,-8 -26,-26l0 -153c0,-13 -7,-5 -11,-22 36,0 69,-6 86,10 14,13 25,39 29,68z"/>
   <path class="fil3" d="M1571 315c-32,-20 -31,-161 0,-181 12,2 11,1 17,12 15,25 17,129 0,157 -6,11 -4,9 -17,12zm7 15l-11 0c-25,-4 -48,-40 -48,-115 0,-124 111,-135 111,11 0,62 -25,100 -52,104z"/>
   <path class="fil0" d="M1649 148l0 153c0,15 -34,26 14,26 15,0 2,1 11,-4 -2,-24 -6,0 -13,-27l-1 -125c11,13 50,117 59,141 5,11 4,15 19,15 15,0 7,-7 7,-41l0 -112c-1,-56 8,-20 11,-48l-33 0c3,26 5,-4 11,23l0 111c-3,-4 -1,-1 -4,-7 -1,-3 -3,-6 -4,-8 -2,-5 -3,-10 -6,-16 -5,-12 -9,-21 -14,-34 -10,-24 -17,-47 -28,-69l-41 0c5,17 12,9 12,22z"/>
   <path class="fil0" d="M791 323c20,10 65,4 93,4 2,-12 7,-43 7,-56 -18,5 -7,2 -14,19 -9,24 -45,24 -45,7l0 -71c24,0 22,1 22,26l11 0 0 -66 -11 0c0,25 2,26 -22,26l0 -71c37,0 44,-5 44,30l8 -45 -82 0c-22,0 -6,5 -2,16 0,1 1,2 1,3l0 159c-3,14 -7,6 -10,19z"/>
   <path class="fil0" d="M2625 148l0 153c0,13 -34,26 14,26 23,0 45,0 68,0 1,-14 4,-43 7,-56l-11 0c-1,46 -48,44 -48,26l0 -71c23,0 22,3 22,26l11 0 0 -66 -11 0c0,21 -1,25 -22,26l0 -71c35,0 43,-6 44,30l8 -45 -93 0c3,26 11,2 11,22z"/>
   <path class="fil2" d="M2049 171c5,19 14,54 15,74l-33 0 18 -74zm-51 152c9,5 9,4 26,4 14,0 1,1 11,-4 -7,-26 -10,5 -12,-26 -1,-17 4,-17 4,-34 43,0 48,-7 48,49 -11,3 -8,0 -11,11 13,7 37,4 52,4 0,-26 -5,-7 -13,-46l-35 -155 -22 0 -38 174c-7,22 -8,2 -10,23z"/>
   <path class="fil3" d="M1188 330c73,0 41,-144 49,-181 6,-27 8,3 11,-23l-34 0c2,23 11,10 11,26 0,35 11,160 -26,160 -24,0 -29,-24 -29,-49l0 -115c0,-20 8,4 11,-22l-52 0c3,29 11,-14 11,52 -1,48 -10,152 48,152z"/>
   <path class="fil2" d="M2302 256c0,43 5,54 -15,56l0 11c11,6 25,4 45,4 14,0 1,1 11,-4l0 -11c-21,-3 -15,-16 -15,-63 0,-11 16,-48 21,-61 4,-12 6,-19 10,-31 6,-14 12,-16 14,-31l-38 0 0 11 12 0c0,42 -16,46 -19,78l-7 0c-2,-22 -19,-48 -19,-67 0,-13 7,-5 11,-22l-56 0 24 62c6,19 21,48 21,68z"/>
   <path class="fil2" d="M1296 256l-2 20c-1,17 2,-4 2,13 0,14 -3,8 -4,23l-11 0 0 15 44 0c15,0 2,1 12,-4l0 -11c-20,-2 -15,-1 -15,-60 0,-16 28,-91 38,-110 6,-11 5,1 6,-16l-37 0c3,25 11,4 11,19 0,24 -17,51 -22,74l-4 -10c-35,-89 -14,-58 -11,-83l-52 0c1,15 6,14 12,29 7,20 33,87 33,101z"/>
   <path class="fil0" d="M2967 163l0 130c0,27 -11,7 -12,34 93,0 93,17 93,-60l-7 0c-9,38 -14,41 -37,41 -9,0 -11,-3 -11,-11l0 -149c0,-18 9,-1 14,-22l-52 0c2,13 12,14 12,37z"/>
   <path class="fil0" d="M2191 163l0 130c0,27 -11,7 -12,34l90 0c0,-24 3,-34 3,-60l-7 0c-10,41 -12,46 -48,37l0 -155c3,-11 2,-10 14,-12l0 -11 -52 0c2,13 12,14 12,37z"/>
   <path class="fil0" d="M2135 156l0 137c0,27 -11,7 -11,34l48 0c-1,-31 -11,-5 -11,-26l0 -153c0,-20 8,4 11,-22l-48 0c2,22 11,7 11,30z"/>
  </g>
 </g>
</svg>
