<?xml version="1.0" encoding="UTF-8"?>
<!DOCTYPE svg PUBLIC "-//W3C//DTD SVG 1.1//EN" "http://www.w3.org/Graphics/SVG/1.1/DTD/svg11.dtd">
<!-- Creator: CorelDRAW X7 -->
<svg xmlns="http://www.w3.org/2000/svg" xml:space="preserve" width="101.559mm" height="19.6908mm" version="1.1" style="shape-rendering:geometricPrecision; text-rendering:geometricPrecision; image-rendering:optimizeQuality; fill-rule:evenodd; clip-rule:evenodd"
viewBox="0 0 5738 1112"
 xmlns:xlink="http://www.w3.org/1999/xlink">
 <defs>
  <font id="FontID0" horiz-adv-x="737" font-variant="normal" style="fill-rule:nonzero" font-weight="700">
	<font-face 
		font-family="Poppins">
	</font-face>
   <missing-glyph><path d="M0 0z"/></missing-glyph>
   <glyph unicode="f" horiz-adv-x="359"><path d="M341.999 415.999l-92.0003 0 0 -415.999 -171 0 0 415.999 -61.997 0 0 141.999 61.997 0 0 15.9994c0,68.6706 19.6696,120.835 58.9987,156.504 39.3342,35.664 97.0042,53.4985 173,53.4985 12.6702,0 22.0011,-0.335932 28.0027,-1.00278l0 -144.997c-32.6656,2.00055 -55.6695,-2.6674 -69.0015,-13.9988 -13.332,-11.3365 -20.0005,-31.6679 -20.0005,-60.9993l0 -5.00389 92.0003 0 0 -141.999z"/></glyph>
   <glyph unicode="e" horiz-adv-x="615"><path d="M588.002 287.999c0,-15.9994 -1.00278,-32.6656 -3.00333,-49.9987l-386.999 0c2.6674,-34.6662 13.8334,-61.1647 33.503,-79.5006 19.6646,-18.3309 43.8316,-27.5013 72.4962,-27.5013 42.6684,0 72.3357,17.9999 89.002,53.9998l182 0c-9.33591,-36.6668 -26.1676,-69.6633 -50.5001,-98.9997 -24.3325,-29.3314 -54.8322,-52.3302 -91.4989,-68.9965 -36.6668,-16.6713 -77.6705,-25.0044 -123.001,-25.0044 -54.6667,0 -103.332,11.6674 -146,35.0021 -42.6684,23.3348 -76.0009,56.6673 -100.003,100.003 -23.9966,43.3302 -35.9999,93.9958 -35.9999,151.997 0,58.001 11.8379,108.667 35.5035,152.002 23.6657,43.3302 56.8327,76.6678 99.5011,99.9975 42.6634,23.3348 91.6644,35.0021 146.998,35.0021 53.9998,0 101.998,-11.3365 144,-33.9993 42.0016,-22.6679 74.8327,-55.0026 98.4983,-96.9992 23.6707,-42.0016 35.5035,-91.0025 35.5035,-147.003zm-175.001 44.9999c0,29.3364 -10.0028,52.6661 -30.0033,69.9992 -19.9955,17.3331 -44.9999,26.0022 -74.9981,26.0022 -28.6645,0 -52.8316,-8.33312 -72.5012,-24.9994 -19.6646,-16.6662 -31.8333,-40.3369 -36.4963,-71.002l213.999 0z"/></glyph>
   <glyph unicode="l" horiz-adv-x="294"><path d="M233.002 739.998l0 -739.998 -171 0 0 739.998 171 0z"/></glyph>
   <glyph unicode="i" horiz-adv-x="294"><path d="M148.001 615.999c-29.9982,0 -54.5012,8.83452 -73.499,26.4985 -19.0027,17.669 -28.5041,39.4996 -28.5041,65.5018 0,26.669 9.50137,48.8355 28.5041,66.4995 18.9977,17.669 43.5007,26.4985 73.499,26.4985 29.3314,0 53.4985,-8.8295 72.5012,-26.4985 18.9977,-17.664 28.4991,-39.8305 28.4991,-66.4995 0,-26.0022 -9.50137,-47.8327 -28.4991,-65.5018 -19.0027,-17.664 -43.1698,-26.4985 -72.5012,-26.4985zm85.0009 -58.001l0 -557.998 -171 0 0 557.998 171 0z"/></glyph>
  </font>
  <style type="text/css">
   <![CDATA[
    @font-face { font-family:"Poppins";src:url("#FontID0") format(svg)}
    .fil1 {fill:#2B2A29}
    .fil0 {fill:#5F01D1}
    .fnt0 {font-weight:bold;font-size:1126.82px;font-family:'Poppins'}
   ]]>
  </style>
 </defs>
 <g id="Layer_x0020_1">
  <metadata id="CorelCorpID_0Corel-Layer"/>
  <g id="_2167308606656">
   <g>
    <g>
     <path class="fil0" d="M0 284l235 0 137 350 138 -350 229 0 -344 828 -231 0 95 -219 -259 -609zm977 -14c-176,0 -288,158 -288,316 0,177 122,318 285,318 121,0 167,-74 167,-74l0 58 204 0 0 -604 -204 0 0 55c0,0 -51,-69 -164,-69l0 0zm44 194c81,0 123,65 123,123 0,62 -45,124 -123,124 -65,0 -124,-53 -124,-122 0,-69 47,-125 124,-125l0 0zm395 424l0 -870 214 0 0 323c0,0 51,-71 158,-71 130,0 207,97 207,236l0 382 -213 0 0 -329c0,-47 -23,-93 -73,-93 -52,0 -79,46 -79,93l0 329 -214 0zm944 -618c-202,0 -323,154 -323,319 0,187 146,315 324,315 172,0 322,-122 322,-312 0,-208 -157,-322 -323,-322l0 0zm2 196c71,0 121,59 121,123 0,54 -46,121 -121,121 -69,0 -120,-55 -120,-122 0,-64 43,-122 120,-122l0 0zm678 -196c-202,0 -322,154 -322,319 0,187 145,315 323,315 172,0 323,-122 323,-312 0,-208 -158,-322 -324,-322l0 0zm2 196c71,0 121,59 121,123 0,54 -46,121 -121,121 -68,0 -120,-55 -120,-122 0,-64 43,-122 120,-122l0 0z"/>
     <circle class="fil0" cx="3533" cy="758" r="142"/>
     <polygon class="fil0" points="3722,564 3465,564 3693,18 3948,18 "/>
    </g>
   </g>
   <text x="4005" y="903"  class="fil1 fnt0">life</text>
  </g>
 </g>
</svg>
